EESchema Schematic File Version 4
EELAYER 30 0
EELAYER END
$Descr A4 11693 8268
encoding utf-8
Sheet 4 4
Title ""
Date ""
Rev ""
Comp ""
Comment1 ""
Comment2 ""
Comment3 ""
Comment4 ""
$EndDescr
$Comp
L Device:Crystal_GND23_Small Y?
U 1 1 600DFB36
P 7050 3500
AR Path="/600DFB36" Ref="Y?"  Part="1" 
AR Path="/600D113E/600DFB36" Ref="Y1"  Part="1" 
F 0 "Y1" V 7200 4000 50  0000 R CNN
F 1 "MC-146 32.7680K-AC3" V 7100 4550 50  0000 R CNN
F 2 "Crystal:Crystal_SMD_SeikoEpson_MC146-4Pin_6.7x1.5mm_HandSoldering" H 7050 3500 50  0001 C CNN
F 3 "~" H 7050 3500 50  0001 C CNN
	1    7050 3500
	0    -1   -1   0   
$EndComp
$Comp
L Device:C_Small C?
U 1 1 600DFB3C
P 7050 3300
AR Path="/600DFB3C" Ref="C?"  Part="1" 
AR Path="/600D113E/600DFB3C" Ref="C12"  Part="1" 
F 0 "C12" H 7142 3346 50  0000 L CNN
F 1 "9pF" H 7142 3255 50  0000 L CNN
F 2 "Capacitor_SMD:C_0603_1608Metric" H 7050 3300 50  0001 C CNN
F 3 "~" H 7050 3300 50  0001 C CNN
	1    7050 3300
	1    0    0    -1  
$EndComp
$Comp
L Device:C_Small C?
U 1 1 600DFB42
P 7050 3700
AR Path="/600DFB42" Ref="C?"  Part="1" 
AR Path="/600D113E/600DFB42" Ref="C13"  Part="1" 
F 0 "C13" H 7142 3746 50  0000 L CNN
F 1 "9pF" H 7142 3655 50  0000 L CNN
F 2 "Capacitor_SMD:C_0603_1608Metric" H 7050 3700 50  0001 C CNN
F 3 "~" H 7050 3700 50  0001 C CNN
	1    7050 3700
	1    0    0    -1  
$EndComp
Wire Wire Line
	7050 3400 7250 3400
Wire Wire Line
	7250 3400 7250 3450
Connection ~ 7050 3400
Wire Wire Line
	7050 3600 7250 3600
Wire Wire Line
	7250 3600 7250 3550
Connection ~ 7050 3600
$Comp
L power:GND #PWR?
U 1 1 600DFB4E
P 7050 3800
AR Path="/600DFB4E" Ref="#PWR?"  Part="1" 
AR Path="/600D113E/600DFB4E" Ref="#PWR052"  Part="1" 
F 0 "#PWR052" H 7050 3550 50  0001 C CNN
F 1 "GND" H 7055 3627 50  0000 C CNN
F 2 "" H 7050 3800 50  0001 C CNN
F 3 "" H 7050 3800 50  0001 C CNN
	1    7050 3800
	1    0    0    -1  
$EndComp
$Comp
L power:GND #PWR?
U 1 1 600DFB54
P 7050 3200
AR Path="/600DFB54" Ref="#PWR?"  Part="1" 
AR Path="/600D113E/600DFB54" Ref="#PWR051"  Part="1" 
F 0 "#PWR051" H 7050 2950 50  0001 C CNN
F 1 "GND" H 7055 3027 50  0000 C CNN
F 2 "" H 7050 3200 50  0001 C CNN
F 3 "" H 7050 3200 50  0001 C CNN
	1    7050 3200
	-1   0    0    1   
$EndComp
Wire Notes Line
	5950 2900 5950 4050
Wire Notes Line
	5950 4050 7550 4050
Wire Notes Line
	5950 2900 7550 2900
Text Notes 5950 2900 0    50   ~ 0
Optionnal/Debug
Wire Wire Line
	7250 3550 8200 3550
Wire Wire Line
	7250 3450 8200 3450
$Comp
L benou-audio:LTC6990 U?
U 1 1 600EF322
P 4550 3750
AR Path="/600EF322" Ref="U?"  Part="1" 
AR Path="/600D113E/600EF322" Ref="U10"  Part="1" 
F 0 "U10" H 4550 4165 50  0000 C CNN
F 1 "LTC6990" H 4550 4074 50  0000 C CNN
F 2 "Package_TO_SOT_SMD:TSOT-23-6_HandSoldering" H 4500 3400 50  0001 C CNN
F 3 "" H 4550 3750 50  0001 C CNN
	1    4550 3750
	1    0    0    -1  
$EndComp
$Comp
L Device:R R?
U 1 1 600EF328
P 3700 3900
AR Path="/600EF328" Ref="R?"  Part="1" 
AR Path="/600D113E/600EF328" Ref="R42"  Part="1" 
F 0 "R42" V 3907 3900 50  0000 C CNN
F 1 "255K" V 3816 3900 50  0000 C CNN
F 2 "Resistor_SMD:R_0603_1608Metric" V 3630 3900 50  0001 C CNN
F 3 "~" H 3700 3900 50  0001 C CNN
	1    3700 3900
	0    -1   -1   0   
$EndComp
$Comp
L Device:R R?
U 1 1 600EF32E
P 4000 4150
AR Path="/600EF32E" Ref="R?"  Part="1" 
AR Path="/600D113E/600EF32E" Ref="R43"  Part="1" 
F 0 "R43" H 4070 4196 50  0000 L CNN
F 1 "65K7" H 4070 4105 50  0000 L CNN
F 2 "Resistor_SMD:R_0603_1608Metric" V 3930 4150 50  0001 C CNN
F 3 "~" H 4000 4150 50  0001 C CNN
	1    4000 4150
	1    0    0    -1  
$EndComp
$Comp
L power:GND #PWR?
U 1 1 600EF334
P 4000 4300
AR Path="/600EF334" Ref="#PWR?"  Part="1" 
AR Path="/600D113E/600EF334" Ref="#PWR045"  Part="1" 
F 0 "#PWR045" H 4000 4050 50  0001 C CNN
F 1 "GND" H 4005 4127 50  0000 C CNN
F 2 "" H 4000 4300 50  0001 C CNN
F 3 "" H 4000 4300 50  0001 C CNN
	1    4000 4300
	1    0    0    -1  
$EndComp
Wire Wire Line
	3850 3900 4000 3900
Wire Wire Line
	4000 4000 4000 3900
Connection ~ 4000 3900
Wire Wire Line
	4000 3900 4150 3900
$Comp
L Device:R R?
U 1 1 600EF33E
P 5150 4450
AR Path="/600EF33E" Ref="R?"  Part="1" 
AR Path="/600D113E/600EF33E" Ref="R45"  Part="1" 
F 0 "R45" H 5220 4496 50  0000 L CNN
F 1 "392K" H 5220 4405 50  0000 L CNN
F 2 "Resistor_SMD:R_0603_1608Metric" V 5080 4450 50  0001 C CNN
F 3 "~" H 5150 4450 50  0001 C CNN
	1    5150 4450
	1    0    0    -1  
$EndComp
$Comp
L Device:R R?
U 1 1 600EF344
P 5150 4050
AR Path="/600EF344" Ref="R?"  Part="1" 
AR Path="/600D113E/600EF344" Ref="R44"  Part="1" 
F 0 "R44" H 5220 4096 50  0000 L CNN
F 1 "100K" H 5220 4005 50  0000 L CNN
F 2 "Resistor_SMD:R_0603_1608Metric" V 5080 4050 50  0001 C CNN
F 3 "~" H 5150 4050 50  0001 C CNN
	1    5150 4050
	1    0    0    -1  
$EndComp
Wire Wire Line
	4950 4250 5150 4250
Wire Wire Line
	5150 4250 5150 4200
Wire Wire Line
	4950 3900 4950 4250
Wire Wire Line
	5150 4300 5150 4250
Connection ~ 5150 4250
$Comp
L power:VDD #PWR?
U 1 1 600EF34F
P 5800 3750
AR Path="/600EF34F" Ref="#PWR?"  Part="1" 
AR Path="/600D113E/600EF34F" Ref="#PWR049"  Part="1" 
F 0 "#PWR049" H 5800 3600 50  0001 C CNN
F 1 "VDD" H 5600 3850 50  0000 L CNN
F 2 "" H 5800 3750 50  0001 C CNN
F 3 "" H 5800 3750 50  0001 C CNN
	1    5800 3750
	1    0    0    -1  
$EndComp
$Comp
L Device:C C?
U 1 1 600EF355
P 5650 4200
AR Path="/600EF355" Ref="C?"  Part="1" 
AR Path="/600D113E/600EF355" Ref="C11"  Part="1" 
F 0 "C11" H 5765 4246 50  0000 L CNN
F 1 "100nF" H 5765 4155 50  0000 L CNN
F 2 "Capacitor_SMD:C_0603_1608Metric" H 5688 4050 50  0001 C CNN
F 3 "~" H 5650 4200 50  0001 C CNN
	1    5650 4200
	1    0    0    -1  
$EndComp
Wire Wire Line
	4950 3750 5150 3750
Wire Wire Line
	5650 4050 5650 3750
Connection ~ 5650 3750
Wire Wire Line
	5150 3900 5150 3750
Wire Wire Line
	5150 3750 5650 3750
$Comp
L power:GND #PWR?
U 1 1 600EF361
P 5650 4350
AR Path="/600EF361" Ref="#PWR?"  Part="1" 
AR Path="/600D113E/600EF361" Ref="#PWR050"  Part="1" 
F 0 "#PWR050" H 5650 4100 50  0001 C CNN
F 1 "GND" H 5655 4177 50  0000 C CNN
F 2 "" H 5650 4350 50  0001 C CNN
F 3 "" H 5650 4350 50  0001 C CNN
	1    5650 4350
	1    0    0    -1  
$EndComp
$Comp
L power:GND #PWR?
U 1 1 600EF367
P 5150 4600
AR Path="/600EF367" Ref="#PWR?"  Part="1" 
AR Path="/600D113E/600EF367" Ref="#PWR048"  Part="1" 
F 0 "#PWR048" H 5150 4350 50  0001 C CNN
F 1 "GND" H 5155 4427 50  0000 C CNN
F 2 "" H 5150 4600 50  0001 C CNN
F 3 "" H 5150 4600 50  0001 C CNN
	1    5150 4600
	1    0    0    -1  
$EndComp
$Comp
L power:GND #PWR?
U 1 1 600EF36D
P 4150 3750
AR Path="/600EF36D" Ref="#PWR?"  Part="1" 
AR Path="/600D113E/600EF36D" Ref="#PWR047"  Part="1" 
F 0 "#PWR047" H 4150 3500 50  0001 C CNN
F 1 "GND" V 4155 3622 50  0000 R CNN
F 2 "" H 4150 3750 50  0001 C CNN
F 3 "" H 4150 3750 50  0001 C CNN
	1    4150 3750
	0    1    1    0   
$EndComp
$Comp
L power:VDD #PWR?
U 1 1 600EF373
P 4150 3600
AR Path="/600EF373" Ref="#PWR?"  Part="1" 
AR Path="/600D113E/600EF373" Ref="#PWR046"  Part="1" 
F 0 "#PWR046" H 4150 3450 50  0001 C CNN
F 1 "VDD" V 4165 3727 50  0000 L CNN
F 2 "" H 4150 3600 50  0001 C CNN
F 3 "" H 4150 3600 50  0001 C CNN
	1    4150 3600
	0    -1   -1   0   
$EndComp
Wire Notes Line
	7550 2900 7550 4050
Wire Wire Line
	3250 3900 3550 3900
Text HLabel 8200 3550 2    50   Input ~ 0
X1
Text HLabel 8200 3450 2    50   Input ~ 0
X2
Text HLabel 3250 3900 0    50   Input ~ 0
clk_cv
Connection ~ 5150 3750
Wire Wire Line
	5800 3750 5650 3750
Text Notes 3350 5250 0    50   ~ 0
f_out_min = 20kHz @ clk_cv = 3V3\nf_out_max = 60kHz @ clv_cv = 0V\n\nNdiv =16\nHi-Z = 0
NoConn ~ 7150 3500
NoConn ~ 6950 3500
$Comp
L Device:Jumper_NO_Small JP?
U 1 1 5FD0376A
P 5350 3600
AR Path="/5FD0376A" Ref="JP?"  Part="1" 
AR Path="/600D113E/5FD0376A" Ref="JP5"  Part="1" 
F 0 "JP5" H 5350 3700 50  0000 C CNN
F 1 "Jumper_NO_Small" H 5350 3694 50  0001 C CNN
F 2 "Jumper:SolderJumper-2_P1.3mm_Open_RoundedPad1.0x1.5mm" H 5350 3600 50  0001 C CNN
F 3 "~" H 5350 3600 50  0001 C CNN
	1    5350 3600
	1    0    0    -1  
$EndComp
Wire Wire Line
	4950 3600 5250 3600
Wire Wire Line
	5450 3600 7050 3600
$EndSCHEMATC
