EESchema Schematic File Version 4
EELAYER 30 0
EELAYER END
$Descr A4 11693 8268
encoding utf-8
Sheet 1 4
Title "Traouiero"
Date "2020-11-10"
Rev "1"
Comp "Benou Synth Lab"
Comment1 ""
Comment2 ""
Comment3 ""
Comment4 ""
$EndDescr
$Comp
L benou-audio:FV-1 U1
U 1 1 5FAA9F4B
P 4950 2500
F 0 "U1" H 4950 3365 50  0000 C CNN
F 1 "FV-1" H 4950 3274 50  0000 C CNN
F 2 "benou-footprints:FV-1" H 4950 2500 50  0001 C CNN
F 3 "http://www.spinsemi.com/Products/datasheets/spn1001/FV-1.pdf" H 4950 2500 50  0001 C CNN
	1    4950 2500
	1    0    0    -1  
$EndComp
$Comp
L power:GND #PWR0101
U 1 1 5FB2B167
P 1800 7100
F 0 "#PWR0101" H 1800 6850 50  0001 C CNN
F 1 "GND" V 1805 6972 50  0000 R CNN
F 2 "" H 1800 7100 50  0001 C CNN
F 3 "" H 1800 7100 50  0001 C CNN
	1    1800 7100
	0    -1   -1   0   
$EndComp
$Comp
L power:+12V #PWR0102
U 1 1 5FB2C10F
P 1800 6900
F 0 "#PWR0102" H 1800 6750 50  0001 C CNN
F 1 "+12V" H 1815 7073 50  0000 C CNN
F 2 "" H 1800 6900 50  0001 C CNN
F 3 "" H 1800 6900 50  0001 C CNN
	1    1800 6900
	1    0    0    -1  
$EndComp
$Comp
L power:-12V #PWR0103
U 1 1 5FB2C6E7
P 1800 7300
F 0 "#PWR0103" H 1800 7400 50  0001 C CNN
F 1 "-12V" H 1815 7473 50  0000 C CNN
F 2 "" H 1800 7300 50  0001 C CNN
F 3 "" H 1800 7300 50  0001 C CNN
	1    1800 7300
	-1   0    0    1   
$EndComp
$Comp
L power:GND #PWR0104
U 1 1 5FB2E0CF
P 1000 7100
F 0 "#PWR0104" H 1000 6850 50  0001 C CNN
F 1 "GND" V 1005 6972 50  0000 R CNN
F 2 "" H 1000 7100 50  0001 C CNN
F 3 "" H 1000 7100 50  0001 C CNN
	1    1000 7100
	0    1    -1   0   
$EndComp
$Comp
L power:+12V #PWR0105
U 1 1 5FB2E0D5
P 1000 6900
F 0 "#PWR0105" H 1000 6750 50  0001 C CNN
F 1 "+12V" H 1015 7073 50  0000 C CNN
F 2 "" H 1000 6900 50  0001 C CNN
F 3 "" H 1000 6900 50  0001 C CNN
	1    1000 6900
	-1   0    0    -1  
$EndComp
$Comp
L power:-12V #PWR0106
U 1 1 5FB2E0DB
P 1000 7300
F 0 "#PWR0106" H 1000 7400 50  0001 C CNN
F 1 "-12V" H 1015 7473 50  0000 C CNN
F 2 "" H 1000 7300 50  0001 C CNN
F 3 "" H 1000 7300 50  0001 C CNN
	1    1000 7300
	1    0    0    1   
$EndComp
Wire Wire Line
	1000 7100 1050 7100
Wire Wire Line
	1100 7100 1100 7000
Wire Wire Line
	1100 7000 1150 7000
Connection ~ 1100 7100
Wire Wire Line
	1100 7100 1150 7100
Wire Wire Line
	1050 7100 1050 7200
Wire Wire Line
	1050 7200 1150 7200
Connection ~ 1050 7100
Wire Wire Line
	1050 7100 1100 7100
Wire Wire Line
	1000 7300 1150 7300
Wire Wire Line
	1000 6900 1150 6900
Wire Wire Line
	1650 6900 1800 6900
Wire Wire Line
	1650 7000 1700 7000
Wire Wire Line
	1700 7000 1700 7100
Wire Wire Line
	1700 7100 1650 7100
Wire Wire Line
	1700 7100 1750 7100
Connection ~ 1700 7100
Wire Wire Line
	1750 7100 1750 7200
Wire Wire Line
	1650 7200 1750 7200
Connection ~ 1750 7100
Wire Wire Line
	1750 7100 1800 7100
Wire Wire Line
	1650 7300 1800 7300
$Comp
L Connector_Generic:Conn_02x05_Odd_Even J3
U 1 1 5FB29500
P 1450 7100
F 0 "J3" H 1500 6750 50  0000 C CNN
F 1 "Conn_02x05_Odd_Even" H 1500 7600 50  0000 C CNN
F 2 "benou-footprints:3M_30310-6002" H 1450 7100 50  0001 C CNN
F 3 "~" H 1450 7100 50  0001 C CNN
	1    1450 7100
	-1   0    0    1   
$EndComp
$Comp
L Memory_EEPROM:24LC32 U2
U 1 1 5FB369AD
P 5000 4400
F 0 "U2" H 4700 4900 50  0000 C CNN
F 1 "24LC32" H 4750 4800 50  0000 C CNN
F 2 "Package_SO:MSOP-8_3x3mm_P0.65mm" H 5000 4400 50  0001 C CNN
F 3 "http://ww1.microchip.com/downloads/en/DeviceDoc/21072G.pdf" H 5000 4400 50  0001 C CNN
	1    5000 4400
	1    0    0    -1  
$EndComp
$Comp
L Memory_EEPROM:24LC32 U3
U 1 1 5FB387B5
P 5000 5500
F 0 "U3" H 4700 6000 50  0000 C CNN
F 1 "24LC32" H 4750 5900 50  0000 C CNN
F 2 "Package_SO:MSOP-8_3x3mm_P0.65mm" H 5000 5500 50  0001 C CNN
F 3 "http://ww1.microchip.com/downloads/en/DeviceDoc/21072G.pdf" H 5000 5500 50  0001 C CNN
	1    5000 5500
	1    0    0    -1  
$EndComp
$Comp
L Connector:AudioJack2_SwitchT J1
U 1 1 5FB3B0AA
P 1150 900
F 0 "J1" H 1182 1225 50  0000 C CNN
F 1 "AudioJack2_SwitchT" H 1182 1134 50  0000 C CNN
F 2 "benou-footprints:Jack_3.5mm_QingPu_WQP-PJ398SM_Vertical_CircularHoles" H 1150 900 50  0001 C CNN
F 3 "~" H 1150 900 50  0001 C CNN
	1    1150 900 
	1    0    0    -1  
$EndComp
$Comp
L Connector:AudioJack2_SwitchT J2
U 1 1 5FB3D9DE
P 1150 1550
F 0 "J2" H 1182 1875 50  0000 C CNN
F 1 "AudioJack2_SwitchT" H 1182 1784 50  0000 C CNN
F 2 "benou-footprints:Jack_3.5mm_QingPu_WQP-PJ398SM_Vertical_CircularHoles" H 1150 1550 50  0001 C CNN
F 3 "~" H 1150 1550 50  0001 C CNN
	1    1150 1550
	1    0    0    -1  
$EndComp
$Comp
L Switch:SW_Coded SW1
U 1 1 5FB3C2F5
P 8050 3000
F 0 "SW1" H 8182 3475 50  0000 C CNN
F 1 "SW_Coded" H 8182 3384 50  0000 C CNN
F 2 "benou-footprints:FR01AR16PB" H 8025 3025 50  0001 C CNN
F 3 "~" H 8025 3025 50  0001 C CNN
	1    8050 3000
	-1   0    0    1   
$EndComp
$Comp
L Regulator_Linear:LM1117-3.3 U5
U 1 1 5FB50C2C
P 3100 7150
F 0 "U5" H 3100 7392 50  0000 C CNN
F 1 "LM1117-3.3" H 3100 7301 50  0000 C CNN
F 2 "Package_TO_SOT_SMD:TO-263-3_TabPin2" H 3100 7150 50  0001 C CNN
F 3 "http://www.ti.com/lit/ds/symlink/lm1117.pdf" H 3100 7150 50  0001 C CNN
	1    3100 7150
	1    0    0    -1  
$EndComp
$Comp
L Device:C C3
U 1 1 5FB54812
P 3500 7300
F 0 "C3" H 3615 7346 50  0000 L CNN
F 1 "100nF" H 3615 7255 50  0000 L CNN
F 2 "Capacitor_SMD:C_0603_1608Metric" H 3538 7150 50  0001 C CNN
F 3 "~" H 3500 7300 50  0001 C CNN
	1    3500 7300
	1    0    0    -1  
$EndComp
$Comp
L Reference_Voltage:LM4040DBZ-10 U6
U 1 1 5FB55460
P 4800 7200
F 0 "U6" V 4754 7279 50  0000 L CNN
F 1 "LM4040DBZ-10" V 4845 7279 50  0000 L CNN
F 2 "Package_TO_SOT_SMD:SOT-23" H 4800 7000 50  0001 C CIN
F 3 "http://www.ti.com/lit/ds/symlink/lm4040-n.pdf" H 4800 7200 50  0001 C CIN
	1    4800 7200
	0    1    1    0   
$EndComp
$Comp
L power:-12V #PWR011
U 1 1 5FB57688
P 4800 6650
F 0 "#PWR011" H 4800 6750 50  0001 C CNN
F 1 "-12V" H 4815 6823 50  0000 C CNN
F 2 "" H 4800 6650 50  0001 C CNN
F 3 "" H 4800 6650 50  0001 C CNN
	1    4800 6650
	1    0    0    -1  
$EndComp
$Comp
L Device:R R1
U 1 1 5FB58EFE
P 4800 6800
F 0 "R1" H 4870 6846 50  0000 L CNN
F 1 "470R" H 4870 6755 50  0000 L CNN
F 2 "Resistor_SMD:R_0603_1608Metric" V 4730 6800 50  0001 C CNN
F 3 "~" H 4800 6800 50  0001 C CNN
	1    4800 6800
	1    0    0    -1  
$EndComp
$Comp
L Device:C C6
U 1 1 5FB5999C
P 5700 7200
F 0 "C6" H 5815 7246 50  0000 L CNN
F 1 "100nF" H 5815 7155 50  0000 L CNN
F 2 "Capacitor_SMD:C_0603_1608Metric" H 5738 7050 50  0001 C CNN
F 3 "~" H 5700 7200 50  0001 C CNN
	1    5700 7200
	1    0    0    -1  
$EndComp
$Comp
L power:GND #PWR012
U 1 1 5FB5A0C7
P 5200 7400
F 0 "#PWR012" H 5200 7150 50  0001 C CNN
F 1 "GND" V 5205 7272 50  0000 R CNN
F 2 "" H 5200 7400 50  0001 C CNN
F 3 "" H 5200 7400 50  0001 C CNN
	1    5200 7400
	1    0    0    -1  
$EndComp
Wire Wire Line
	4800 6950 4800 7000
Wire Wire Line
	4800 7000 5400 7000
Wire Wire Line
	5700 7000 5700 7050
Connection ~ 4800 7000
Wire Wire Line
	4800 7000 4800 7050
Wire Wire Line
	4800 7350 5200 7350
Wire Wire Line
	5200 7350 5200 7400
Connection ~ 5200 7350
Wire Wire Line
	5200 7350 5700 7350
$Comp
L Regulator_Linear:LM1117-3.3 U4
U 1 1 5FB5E422
P 3100 6250
F 0 "U4" H 3100 6492 50  0000 C CNN
F 1 "LM1117-3.3" H 3100 6401 50  0000 C CNN
F 2 "Package_TO_SOT_SMD:TO-263-3_TabPin2" H 3100 6250 50  0001 C CNN
F 3 "http://www.ti.com/lit/ds/symlink/lm1117.pdf" H 3100 6250 50  0001 C CNN
	1    3100 6250
	1    0    0    -1  
$EndComp
$Comp
L Device:C C5
U 1 1 5FB5ED85
P 4000 7300
F 0 "C5" H 4115 7346 50  0000 L CNN
F 1 "47uF" H 4115 7255 50  0000 L CNN
F 2 "Capacitor_SMD:C_0603_1608Metric" H 4038 7150 50  0001 C CNN
F 3 "~" H 4000 7300 50  0001 C CNN
	1    4000 7300
	1    0    0    -1  
$EndComp
$Comp
L Device:C C4
U 1 1 5FB5F06D
P 4000 6400
F 0 "C4" H 4115 6446 50  0000 L CNN
F 1 "47uF" H 4115 6355 50  0000 L CNN
F 2 "Capacitor_SMD:C_0603_1608Metric" H 4038 6250 50  0001 C CNN
F 3 "~" H 4000 6400 50  0001 C CNN
	1    4000 6400
	1    0    0    -1  
$EndComp
$Comp
L Device:C C2
U 1 1 5FB5F3C4
P 3500 6400
F 0 "C2" H 3615 6446 50  0000 L CNN
F 1 "100nF" H 3615 6355 50  0000 L CNN
F 2 "Capacitor_SMD:C_0603_1608Metric" H 3538 6250 50  0001 C CNN
F 3 "~" H 3500 6400 50  0001 C CNN
	1    3500 6400
	1    0    0    -1  
$EndComp
$Comp
L Device:C C1
U 1 1 5FB65F60
P 2450 7300
F 0 "C1" H 2565 7346 50  0000 L CNN
F 1 "10uF" H 2565 7255 50  0000 L CNN
F 2 "Capacitor_SMD:C_0805_2012Metric_Pad1.18x1.45mm_HandSolder" H 2488 7150 50  0001 C CNN
F 3 "~" H 2450 7300 50  0001 C CNN
	1    2450 7300
	1    0    0    -1  
$EndComp
$Comp
L power:+12V #PWR01
U 1 1 5FB66EA4
P 2450 7050
F 0 "#PWR01" H 2450 6900 50  0001 C CNN
F 1 "+12V" H 2465 7223 50  0000 C CNN
F 2 "" H 2450 7050 50  0001 C CNN
F 3 "" H 2450 7050 50  0001 C CNN
	1    2450 7050
	1    0    0    -1  
$EndComp
Wire Wire Line
	2450 7050 2450 7150
Wire Wire Line
	2450 7150 2700 7150
Connection ~ 2450 7150
Wire Wire Line
	2800 6250 2700 6250
Connection ~ 2700 7150
Wire Wire Line
	2700 7150 2800 7150
Wire Wire Line
	3400 7150 3500 7150
Connection ~ 3500 7150
Wire Wire Line
	3500 7150 4000 7150
Wire Wire Line
	3400 6250 3500 6250
Connection ~ 3500 6250
Wire Wire Line
	3500 6250 4000 6250
$Comp
L power:GND #PWR02
U 1 1 5FB6B047
P 2450 7450
F 0 "#PWR02" H 2450 7200 50  0001 C CNN
F 1 "GND" V 2455 7322 50  0000 R CNN
F 2 "" H 2450 7450 50  0001 C CNN
F 3 "" H 2450 7450 50  0001 C CNN
	1    2450 7450
	1    0    0    -1  
$EndComp
$Comp
L power:GND #PWR04
U 1 1 5FB6B908
P 3100 7450
F 0 "#PWR04" H 3100 7200 50  0001 C CNN
F 1 "GND" V 3105 7322 50  0000 R CNN
F 2 "" H 3100 7450 50  0001 C CNN
F 3 "" H 3100 7450 50  0001 C CNN
	1    3100 7450
	1    0    0    -1  
$EndComp
$Comp
L power:GND #PWR06
U 1 1 5FB6BAEC
P 3500 7450
F 0 "#PWR06" H 3500 7200 50  0001 C CNN
F 1 "GND" V 3505 7322 50  0000 R CNN
F 2 "" H 3500 7450 50  0001 C CNN
F 3 "" H 3500 7450 50  0001 C CNN
	1    3500 7450
	1    0    0    -1  
$EndComp
$Comp
L power:GND #PWR010
U 1 1 5FB6BC98
P 4000 7450
F 0 "#PWR010" H 4000 7200 50  0001 C CNN
F 1 "GND" V 4005 7322 50  0000 R CNN
F 2 "" H 4000 7450 50  0001 C CNN
F 3 "" H 4000 7450 50  0001 C CNN
	1    4000 7450
	1    0    0    -1  
$EndComp
$Comp
L power:GND #PWR08
U 1 1 5FB6BFA5
P 4000 6550
F 0 "#PWR08" H 4000 6300 50  0001 C CNN
F 1 "GND" V 4005 6422 50  0000 R CNN
F 2 "" H 4000 6550 50  0001 C CNN
F 3 "" H 4000 6550 50  0001 C CNN
	1    4000 6550
	1    0    0    -1  
$EndComp
$Comp
L power:GND #PWR05
U 1 1 5FB6C3A0
P 3500 6550
F 0 "#PWR05" H 3500 6300 50  0001 C CNN
F 1 "GND" V 3505 6422 50  0000 R CNN
F 2 "" H 3500 6550 50  0001 C CNN
F 3 "" H 3500 6550 50  0001 C CNN
	1    3500 6550
	1    0    0    -1  
$EndComp
$Comp
L power:GND #PWR03
U 1 1 5FB6C5D2
P 3100 6550
F 0 "#PWR03" H 3100 6300 50  0001 C CNN
F 1 "GND" V 3105 6422 50  0000 R CNN
F 2 "" H 3100 6550 50  0001 C CNN
F 3 "" H 3100 6550 50  0001 C CNN
	1    3100 6550
	1    0    0    -1  
$EndComp
Wire Wire Line
	2700 6250 2700 7150
$Comp
L power:VDDA #PWR07
U 1 1 5FB6FB8C
P 4000 6250
F 0 "#PWR07" H 4000 6100 50  0001 C CNN
F 1 "VDDA" H 4015 6423 50  0000 C CNN
F 2 "" H 4000 6250 50  0001 C CNN
F 3 "" H 4000 6250 50  0001 C CNN
	1    4000 6250
	1    0    0    -1  
$EndComp
Connection ~ 4000 6250
$Comp
L power:VDD #PWR09
U 1 1 5FB70898
P 4000 7150
F 0 "#PWR09" H 4000 7000 50  0001 C CNN
F 1 "VDD" H 4015 7323 50  0000 C CNN
F 2 "" H 4000 7150 50  0001 C CNN
F 3 "" H 4000 7150 50  0001 C CNN
	1    4000 7150
	1    0    0    -1  
$EndComp
Connection ~ 4000 7150
$Sheet
S 7350 4050 800  2150
U 5FB8B9E0
F0 "cv_in" 50
F1 "cv_in.sch" 50
F2 "in0" I R 8150 4200 50 
F3 "in1" I R 8150 4800 50 
F4 "in2" I R 8150 5400 50 
F5 "in3" I R 8150 6000 50 
F6 "out0" I L 7350 4200 50 
F7 "out1" I L 7350 4800 50 
F8 "out2" I L 7350 5400 50 
F9 "out3" I L 7350 6000 50 
$EndSheet
$Comp
L Connector:AudioJack2_SwitchT J4
U 1 1 5FBADCA3
P 8850 4200
F 0 "J4" H 8882 4525 50  0000 C CNN
F 1 "AudioJack2_SwitchT" H 8882 4434 50  0000 C CNN
F 2 "benou-footprints:Jack_3.5mm_QingPu_WQP-PJ398SM_Vertical_CircularHoles" H 8850 4200 50  0001 C CNN
F 3 "~" H 8850 4200 50  0001 C CNN
	1    8850 4200
	-1   0    0    -1  
$EndComp
$Comp
L Connector:AudioJack2_SwitchT J5
U 1 1 5FBAEC73
P 8850 4800
F 0 "J5" H 8882 5125 50  0000 C CNN
F 1 "AudioJack2_SwitchT" H 8882 5034 50  0000 C CNN
F 2 "benou-footprints:Jack_3.5mm_QingPu_WQP-PJ398SM_Vertical_CircularHoles" H 8850 4800 50  0001 C CNN
F 3 "~" H 8850 4800 50  0001 C CNN
	1    8850 4800
	-1   0    0    -1  
$EndComp
$Comp
L Connector:AudioJack2_SwitchT J6
U 1 1 5FBAF06B
P 8850 5400
F 0 "J6" H 8882 5725 50  0000 C CNN
F 1 "AudioJack2_SwitchT" H 8882 5634 50  0000 C CNN
F 2 "benou-footprints:Jack_3.5mm_QingPu_WQP-PJ398SM_Vertical_CircularHoles" H 8850 5400 50  0001 C CNN
F 3 "~" H 8850 5400 50  0001 C CNN
	1    8850 5400
	-1   0    0    -1  
$EndComp
$Comp
L Connector:AudioJack2_SwitchT J7
U 1 1 5FBAF903
P 8850 6000
F 0 "J7" H 8882 6325 50  0000 C CNN
F 1 "AudioJack2_SwitchT" H 8882 6234 50  0000 C CNN
F 2 "benou-footprints:Jack_3.5mm_QingPu_WQP-PJ398SM_Vertical_CircularHoles" H 8850 6000 50  0001 C CNN
F 3 "~" H 8850 6000 50  0001 C CNN
	1    8850 6000
	-1   0    0    -1  
$EndComp
$Comp
L power:-10V #PWR017
U 1 1 5FC97CB1
P 5400 7000
F 0 "#PWR017" H 5400 7100 50  0001 C CNN
F 1 "-10V" H 5415 7173 50  0000 C CNN
F 2 "" H 5400 7000 50  0001 C CNN
F 3 "" H 5400 7000 50  0001 C CNN
	1    5400 7000
	1    0    0    -1  
$EndComp
Connection ~ 5400 7000
Wire Wire Line
	5400 7000 5700 7000
Text Label 6950 6000 0    50   ~ 0
clk_cv
Wire Wire Line
	6950 6000 7350 6000
Wire Wire Line
	8650 6000 8150 6000
Wire Wire Line
	8650 5400 8150 5400
Wire Wire Line
	8650 4800 8150 4800
Wire Wire Line
	8650 4200 8150 4200
Text Label 6950 4200 0    50   ~ 0
pot0_cv
Text Label 6950 4800 0    50   ~ 0
pot1_cv
Text Label 6950 5400 0    50   ~ 0
pot2_cv
Wire Wire Line
	6950 5400 7350 5400
Wire Wire Line
	6950 4800 7350 4800
Wire Wire Line
	6950 4200 7350 4200
$Comp
L 74xGxx:74AHC1G04 U11
U 1 1 5FE0747F
P 4250 5400
F 0 "U11" H 3950 5300 50  0000 C CNN
F 1 "74AHC1G04" H 3950 5150 50  0000 C CNN
F 2 "Package_TO_SOT_SMD:SOT-353_SC-70-5_Handsoldering" H 4250 5400 50  0001 C CNN
F 3 "http://www.ti.com/lit/sg/scyt129e/scyt129e.pdf" H 4250 5400 50  0001 C CNN
	1    4250 5400
	1    0    0    -1  
$EndComp
Wire Wire Line
	3950 5400 3950 4300
Text Label 6500 2800 0    50   ~ 0
mem_ctrl
$Comp
L Device:R R38
U 1 1 5FE1CBB8
P 5800 2650
F 0 "R38" H 5850 2700 50  0000 L CNN
F 1 "10K" H 5850 2600 50  0000 L CNN
F 2 "Resistor_SMD:R_0603_1608Metric" V 5730 2650 50  0001 C CNN
F 3 "~" H 5800 2650 50  0001 C CNN
	1    5800 2650
	1    0    0    -1  
$EndComp
$Comp
L Device:R R39
U 1 1 5FE1D3B1
P 6050 2650
F 0 "R39" H 6100 2700 50  0000 L CNN
F 1 "10K" H 6100 2600 50  0000 L CNN
F 2 "Resistor_SMD:R_0603_1608Metric" V 5980 2650 50  0001 C CNN
F 3 "~" H 6050 2650 50  0001 C CNN
	1    6050 2650
	1    0    0    -1  
$EndComp
$Comp
L Device:R R40
U 1 1 5FE1D680
P 6300 2650
F 0 "R40" H 6350 2700 50  0000 L CNN
F 1 "10K" H 6350 2600 50  0000 L CNN
F 2 "Resistor_SMD:R_0603_1608Metric" V 6230 2650 50  0001 C CNN
F 3 "~" H 6300 2650 50  0001 C CNN
	1    6300 2650
	1    0    0    -1  
$EndComp
Wire Wire Line
	5400 2900 5800 2900
Wire Wire Line
	5400 3000 6050 3000
Wire Wire Line
	5400 3100 6300 3100
Wire Wire Line
	5800 2800 5800 2900
Wire Wire Line
	6050 2800 6050 3000
Wire Wire Line
	6300 2800 6300 3100
Wire Wire Line
	5800 2500 6050 2500
Connection ~ 6050 2500
$Comp
L power:VDD #PWR0109
U 1 1 5FE2913B
P 6200 2500
F 0 "#PWR0109" H 6200 2350 50  0001 C CNN
F 1 "VDD" H 6215 2673 50  0000 C CNN
F 2 "" H 6200 2500 50  0001 C CNN
F 3 "" H 6200 2500 50  0001 C CNN
	1    6200 2500
	1    0    0    -1  
$EndComp
$Comp
L Device:R R34
U 1 1 5FE29660
P 3950 4150
F 0 "R34" H 4020 4196 50  0000 L CNN
F 1 "10K" H 4020 4105 50  0000 L CNN
F 2 "Resistor_SMD:R_0603_1608Metric" V 3880 4150 50  0001 C CNN
F 3 "~" H 3950 4150 50  0001 C CNN
	1    3950 4150
	1    0    0    -1  
$EndComp
Connection ~ 3950 4300
$Comp
L power:VDD #PWR0110
U 1 1 5FE2A153
P 3950 4000
F 0 "#PWR0110" H 3950 3850 50  0001 C CNN
F 1 "VDD" H 3965 4173 50  0000 C CNN
F 2 "" H 3950 4000 50  0001 C CNN
F 3 "" H 3950 4000 50  0001 C CNN
	1    3950 4000
	1    0    0    -1  
$EndComp
Text Label 3500 5400 0    50   ~ 0
mem_ctrl
Wire Wire Line
	4600 5500 4600 5600
Wire Wire Line
	4600 5800 5000 5800
Connection ~ 4600 5600
Wire Wire Line
	4600 5600 4600 5800
Wire Wire Line
	4600 4400 4600 4500
Connection ~ 4600 4500
Wire Wire Line
	4600 4500 4600 4700
$Comp
L power:GND #PWR0111
U 1 1 5FE2F562
P 4600 4700
F 0 "#PWR0111" H 4600 4450 50  0001 C CNN
F 1 "GND" H 4605 4527 50  0000 C CNN
F 2 "" H 4600 4700 50  0001 C CNN
F 3 "" H 4600 4700 50  0001 C CNN
	1    4600 4700
	1    0    0    -1  
$EndComp
$Comp
L power:GND #PWR0112
U 1 1 5FE2FBC2
P 5000 5800
F 0 "#PWR0112" H 5000 5550 50  0001 C CNN
F 1 "GND" H 5005 5627 50  0000 C CNN
F 2 "" H 5000 5800 50  0001 C CNN
F 3 "" H 5000 5800 50  0001 C CNN
	1    5000 5800
	1    0    0    -1  
$EndComp
Connection ~ 5000 5800
Wire Wire Line
	4600 4700 5000 4700
$Comp
L power:GND #PWR0113
U 1 1 5FE305B7
P 6900 3200
F 0 "#PWR0113" H 6900 2950 50  0001 C CNN
F 1 "GND" H 6905 3027 50  0000 C CNN
F 2 "" H 6900 3200 50  0001 C CNN
F 3 "" H 6900 3200 50  0001 C CNN
	1    6900 3200
	1    0    0    -1  
$EndComp
$Comp
L Device:Jumper_NO_Small JP2
U 1 1 5FE37F7A
P 5900 5600
F 0 "JP2" H 6050 5650 50  0000 C CNN
F 1 "Jumper_NO_Small" H 5900 5694 50  0001 C CNN
F 2 "Jumper:SolderJumper-2_P1.3mm_Open_RoundedPad1.0x1.5mm" H 5900 5600 50  0001 C CNN
F 3 "~" H 5900 5600 50  0001 C CNN
	1    5900 5600
	1    0    0    -1  
$EndComp
$Comp
L Device:Jumper_NO_Small JP1
U 1 1 5FE39AE9
P 5900 4500
F 0 "JP1" H 6050 4550 50  0000 C CNN
F 1 "Jumper_NO_Small" H 5900 4594 50  0001 C CNN
F 2 "Jumper:SolderJumper-2_P1.3mm_Open_RoundedPad1.0x1.5mm" H 5900 4500 50  0001 C CNN
F 3 "~" H 5900 4500 50  0001 C CNN
	1    5900 4500
	1    0    0    -1  
$EndComp
$Comp
L Device:R R37
U 1 1 5FE3A203
P 5700 5750
F 0 "R37" H 5770 5796 50  0000 L CNN
F 1 "10K" H 5770 5705 50  0000 L CNN
F 2 "Resistor_SMD:R_0603_1608Metric" V 5630 5750 50  0001 C CNN
F 3 "~" H 5700 5750 50  0001 C CNN
	1    5700 5750
	1    0    0    -1  
$EndComp
$Comp
L Device:R R36
U 1 1 5FE3A746
P 5700 4650
F 0 "R36" H 5770 4696 50  0000 L CNN
F 1 "10K" H 5770 4605 50  0000 L CNN
F 2 "Resistor_SMD:R_0603_1608Metric" V 5630 4650 50  0001 C CNN
F 3 "~" H 5700 4650 50  0001 C CNN
	1    5700 4650
	1    0    0    -1  
$EndComp
$Comp
L power:VDD #PWR0114
U 1 1 5FE3AB16
P 6150 4500
F 0 "#PWR0114" H 6150 4350 50  0001 C CNN
F 1 "VDD" V 6165 4628 50  0000 L CNN
F 2 "" H 6150 4500 50  0001 C CNN
F 3 "" H 6150 4500 50  0001 C CNN
	1    6150 4500
	0    1    1    0   
$EndComp
$Comp
L power:VDD #PWR0115
U 1 1 5FE40FF8
P 6150 5600
F 0 "#PWR0115" H 6150 5450 50  0001 C CNN
F 1 "VDD" V 6165 5728 50  0000 L CNN
F 2 "" H 6150 5600 50  0001 C CNN
F 3 "" H 6150 5600 50  0001 C CNN
	1    6150 5600
	0    1    1    0   
$EndComp
Wire Wire Line
	6000 4500 6150 4500
Wire Wire Line
	6000 5600 6150 5600
$Comp
L power:GND #PWR0116
U 1 1 5FE491C6
P 5700 4800
F 0 "#PWR0116" H 5700 4550 50  0001 C CNN
F 1 "GND" H 5705 4627 50  0000 C CNN
F 2 "" H 5700 4800 50  0001 C CNN
F 3 "" H 5700 4800 50  0001 C CNN
	1    5700 4800
	1    0    0    -1  
$EndComp
$Comp
L power:GND #PWR0117
U 1 1 5FE49469
P 5700 5900
F 0 "#PWR0117" H 5700 5650 50  0001 C CNN
F 1 "GND" H 5705 5727 50  0000 C CNN
F 2 "" H 5700 5900 50  0001 C CNN
F 3 "" H 5700 5900 50  0001 C CNN
	1    5700 5900
	1    0    0    -1  
$EndComp
Wire Wire Line
	4500 3500 5450 3500
Wire Wire Line
	6450 3500 6450 4400
Wire Wire Line
	6450 5500 5400 5500
Wire Wire Line
	5400 4400 6450 4400
Connection ~ 6450 4400
Wire Wire Line
	6450 4400 6450 5500
Wire Wire Line
	5400 3350 5450 3350
Wire Wire Line
	6600 3350 6600 4300
Wire Wire Line
	5400 4300 6600 4300
Wire Wire Line
	1500 4400 1100 4400
Wire Wire Line
	1500 4500 1100 4500
$Comp
L power:GND #PWR0118
U 1 1 5FE5D50A
P 1100 4600
F 0 "#PWR0118" H 1100 4350 50  0001 C CNN
F 1 "GND" H 1105 4427 50  0000 C CNN
F 2 "" H 1100 4600 50  0001 C CNN
F 3 "" H 1100 4600 50  0001 C CNN
	1    1100 4600
	-1   0    0    -1  
$EndComp
Text Label 5700 2700 2    50   ~ 0
pot0_cv
Text Label 5700 2600 2    50   ~ 0
pot1_cv
Text Label 5700 2500 2    50   ~ 0
pot2_cv
Wire Wire Line
	5700 2500 5400 2500
Wire Wire Line
	5700 2600 5400 2600
Wire Wire Line
	5700 2700 5400 2700
$Comp
L power:GND #PWR0125
U 1 1 5FEE1BA5
P 5400 2800
F 0 "#PWR0125" H 5400 2550 50  0001 C CNN
F 1 "GND" V 5405 2672 50  0000 R CNN
F 2 "" H 5400 2800 50  0001 C CNN
F 3 "" H 5400 2800 50  0001 C CNN
	1    5400 2800
	0    -1   -1   0   
$EndComp
$Comp
L power:GND #PWR0126
U 1 1 5FEE2301
P 4500 2500
F 0 "#PWR0126" H 4500 2250 50  0001 C CNN
F 1 "GND" V 4505 2372 50  0000 R CNN
F 2 "" H 4500 2500 50  0001 C CNN
F 3 "" H 4500 2500 50  0001 C CNN
	1    4500 2500
	0    1    1    0   
$EndComp
$Comp
L power:GND #PWR0127
U 1 1 5FEE2A1A
P 4500 2900
F 0 "#PWR0127" H 4500 2650 50  0001 C CNN
F 1 "GND" V 4505 2772 50  0000 R CNN
F 2 "" H 4500 2900 50  0001 C CNN
F 3 "" H 4500 2900 50  0001 C CNN
	1    4500 2900
	0    1    1    0   
$EndComp
$Comp
L power:GND #PWR0128
U 1 1 5FEE2D0B
P 4500 3000
F 0 "#PWR0128" H 4500 2750 50  0001 C CNN
F 1 "GND" V 4505 2872 50  0000 R CNN
F 2 "" H 4500 3000 50  0001 C CNN
F 3 "" H 4500 3000 50  0001 C CNN
	1    4500 3000
	0    1    1    0   
$EndComp
$Comp
L power:GND #PWR0129
U 1 1 5FEE2ECD
P 5400 2300
F 0 "#PWR0129" H 5400 2050 50  0001 C CNN
F 1 "GND" V 5405 2172 50  0000 R CNN
F 2 "" H 5400 2300 50  0001 C CNN
F 3 "" H 5400 2300 50  0001 C CNN
	1    5400 2300
	0    -1   -1   0   
$EndComp
$Comp
L power:GND #PWR0130
U 1 1 5FEE312E
P 4500 2200
F 0 "#PWR0130" H 4500 1950 50  0001 C CNN
F 1 "GND" V 4505 2072 50  0000 R CNN
F 2 "" H 4500 2200 50  0001 C CNN
F 3 "" H 4500 2200 50  0001 C CNN
	1    4500 2200
	0    1    1    0   
$EndComp
$Comp
L Device:LED D1
U 1 1 5FEE3BAF
P 3200 2300
F 0 "D1" H 3250 2200 50  0000 R CNN
F 1 "LED" H 3450 2350 50  0000 R CNN
F 2 "LED_SMD:LED_0603_1608Metric_Pad1.05x0.95mm_HandSolder" H 3200 2300 50  0001 C CNN
F 3 "~" H 3200 2300 50  0001 C CNN
	1    3200 2300
	-1   0    0    1   
$EndComp
$Comp
L Device:R R35
U 1 1 5FEE59D3
P 3500 2300
F 0 "R35" V 3700 2300 50  0000 C CNN
F 1 "470R" V 3600 2300 50  0000 C CNN
F 2 "Resistor_SMD:R_0603_1608Metric" V 3430 2300 50  0001 C CNN
F 3 "~" H 3500 2300 50  0001 C CNN
	1    3500 2300
	0    -1   -1   0   
$EndComp
$Comp
L Device:R R41
U 1 1 5FEF27F0
P 3950 3200
F 0 "R41" H 4020 3246 50  0000 L CNN
F 1 "10K" H 4020 3155 50  0000 L CNN
F 2 "Resistor_SMD:R_0603_1608Metric" V 3880 3200 50  0001 C CNN
F 3 "~" H 3950 3200 50  0001 C CNN
	1    3950 3200
	1    0    0    -1  
$EndComp
$Sheet
S 1550 4950 1050 950 
U 5FEFB15B
F0 "i2c_prog" 50
F1 "i2c_prog.sch" 50
F2 "sda_prog" I L 1550 5100 50 
F3 "scl_prog" I L 1550 5200 50 
F4 "rst_prog" I L 1550 5300 50 
F5 "prog_en" I L 1550 5400 50 
F6 "sda_target" I R 2600 5100 50 
F7 "scl_target" I R 2600 5250 50 
F8 "rst_target" I R 2600 5400 50 
F9 "pwr_target" I R 2600 5550 50 
F10 "prog_connected" I L 1550 5750 50 
$EndSheet
Wire Wire Line
	3500 5400 3950 5400
Connection ~ 3950 5400
$Comp
L power:VDD #PWR031
U 1 1 5FF33F09
P 3050 2300
F 0 "#PWR031" H 3050 2150 50  0001 C CNN
F 1 "VDD" H 3065 2473 50  0000 C CNN
F 2 "" H 3050 2300 50  0001 C CNN
F 3 "" H 3050 2300 50  0001 C CNN
	1    3050 2300
	1    0    0    -1  
$EndComp
$Comp
L power:VDD #PWR033
U 1 1 5FF4C70E
P 3950 3050
F 0 "#PWR033" H 3950 2900 50  0001 C CNN
F 1 "VDD" H 3965 3223 50  0000 C CNN
F 2 "" H 3950 3050 50  0001 C CNN
F 3 "" H 3950 3050 50  0001 C CNN
	1    3950 3050
	1    0    0    -1  
$EndComp
Wire Wire Line
	3950 3350 3950 3400
Wire Wire Line
	3950 3400 4400 3400
Wire Wire Line
	4400 3400 4400 3100
Wire Wire Line
	4400 3100 4500 3100
Wire Wire Line
	6600 5400 6600 4300
Wire Wire Line
	5400 5400 6600 5400
Connection ~ 6600 4300
Text Label 6050 3350 0    50   ~ 0
sda_target
Text Label 6050 3500 0    50   ~ 0
scl_target
Text Label 4000 3400 0    50   ~ 0
rst_target
$Comp
L power:VDD #PWR030
U 1 1 5FF8C864
P 2600 5550
F 0 "#PWR030" H 2600 5400 50  0001 C CNN
F 1 "VDD" V 2615 5678 50  0000 L CNN
F 2 "" H 2600 5550 50  0001 C CNN
F 3 "" H 2600 5550 50  0001 C CNN
	1    2600 5550
	0    1    1    0   
$EndComp
Text Label 2650 5400 0    50   ~ 0
rst_target
Text Label 2650 5250 0    50   ~ 0
scl_target
Text Label 2650 5100 0    50   ~ 0
sda_target
$Comp
L Device:Jumper_NO_Small JP3
U 1 1 5FF8E77A
P 5550 3350
F 0 "JP3" H 5800 3400 50  0000 C CNN
F 1 "Jumper_NO_Small" H 5550 3444 50  0001 C CNN
F 2 "Jumper:SolderJumper-2_P1.3mm_Open_RoundedPad1.0x1.5mm" H 5550 3350 50  0001 C CNN
F 3 "~" H 5550 3350 50  0001 C CNN
	1    5550 3350
	1    0    0    -1  
$EndComp
Wire Wire Line
	5650 3350 6600 3350
$Comp
L Device:Jumper_NO_Small JP4
U 1 1 5FF8ECDF
P 5550 3500
F 0 "JP4" H 5800 3550 50  0000 C CNN
F 1 "Jumper_NO_Small" H 5550 3594 50  0001 C CNN
F 2 "Jumper:SolderJumper-2_P1.3mm_Open_RoundedPad1.0x1.5mm" H 5550 3500 50  0001 C CNN
F 3 "~" H 5550 3500 50  0001 C CNN
	1    5550 3500
	1    0    0    -1  
$EndComp
Wire Wire Line
	5650 3500 6450 3500
Text Notes 4600 3450 0    50   ~ 0
Closed for normal operation
Wire Wire Line
	2600 5100 3150 5100
Wire Wire Line
	2600 5400 3050 5400
$Comp
L Device:R R31
U 1 1 5FFAA2D3
P 3150 4850
F 0 "R31" H 3200 4900 50  0000 L CNN
F 1 "NP" H 3200 4800 50  0000 L CNN
F 2 "Resistor_SMD:R_0603_1608Metric" V 3080 4850 50  0001 C CNN
F 3 "~" H 3150 4850 50  0001 C CNN
	1    3150 4850
	1    0    0    -1  
$EndComp
$Comp
L Device:R R32
U 1 1 5FFAA6E4
P 3400 4850
F 0 "R32" H 3450 4900 50  0000 L CNN
F 1 "NP" H 3450 4800 50  0000 L CNN
F 2 "Resistor_SMD:R_0603_1608Metric" V 3330 4850 50  0001 C CNN
F 3 "~" H 3400 4850 50  0001 C CNN
	1    3400 4850
	1    0    0    -1  
$EndComp
Wire Wire Line
	2600 5250 3400 5250
Wire Wire Line
	3150 5100 3150 5000
$Comp
L power:VDD #PWR039
U 1 1 5FFC8958
P 3300 4700
F 0 "#PWR039" H 3300 4550 50  0001 C CNN
F 1 "VDD" H 3315 4873 50  0000 C CNN
F 2 "" H 3300 4700 50  0001 C CNN
F 3 "" H 3300 4700 50  0001 C CNN
	1    3300 4700
	1    0    0    -1  
$EndComp
Connection ~ 3300 4700
Wire Wire Line
	3400 5000 3400 5250
$Comp
L Connector:Conn_01x05_Male J9
U 1 1 5FFD0146
P 900 5300
F 0 "J9" H 872 5232 50  0000 R CNN
F 1 "Conn_01x05_Male" H 1400 4950 50  0000 R CNN
F 2 "Connector_PinHeader_2.54mm:PinHeader_1x05_P2.54mm_Horizontal" H 900 5300 50  0001 C CNN
F 3 "~" H 900 5300 50  0001 C CNN
	1    900  5300
	1    0    0    1   
$EndComp
$Comp
L Connector:Conn_01x04_Male J8
U 1 1 5FFD28FB
P 900 4500
F 0 "J8" H 872 4382 50  0000 R CNN
F 1 "Conn_01x04_Male" H 1400 4150 50  0000 R CNN
F 2 "Connector_PinHeader_2.54mm:PinHeader_1x04_P2.54mm_Horizontal" H 900 4500 50  0001 C CNN
F 3 "~" H 900 4500 50  0001 C CNN
	1    900  4500
	1    0    0    1   
$EndComp
$Comp
L Switch:SW_Push SW2
U 1 1 5FFD42F9
P 1900 4300
F 0 "SW2" H 1900 4585 50  0000 C CNN
F 1 "Prog_toggle" H 1900 4494 50  0000 C CNN
F 2 "Button_Switch_SMD:SW_SPST_B3S-1000" H 1900 4500 50  0001 C CNN
F 3 "~" H 1900 4500 50  0001 C CNN
	1    1900 4300
	1    0    0    -1  
$EndComp
Text Label 1150 4400 0    50   ~ 0
sda_target
Text Label 1150 4500 0    50   ~ 0
scl_target
Text Label 1150 4300 0    50   ~ 0
rst_target
Wire Wire Line
	1100 4300 1700 4300
$Comp
L power:GND #PWR038
U 1 1 5FFEFB2F
P 2100 4300
F 0 "#PWR038" H 2100 4050 50  0001 C CNN
F 1 "GND" H 2105 4127 50  0000 C CNN
F 2 "" H 2100 4300 50  0001 C CNN
F 3 "" H 2100 4300 50  0001 C CNN
	1    2100 4300
	0    -1   -1   0   
$EndComp
$Comp
L power:GND #PWR032
U 1 1 5FFF0C4A
P 1100 5500
F 0 "#PWR032" H 1100 5250 50  0001 C CNN
F 1 "GND" H 1105 5327 50  0000 C CNN
F 2 "" H 1100 5500 50  0001 C CNN
F 3 "" H 1100 5500 50  0001 C CNN
	1    1100 5500
	-1   0    0    -1  
$EndComp
Wire Wire Line
	1100 5100 1550 5100
Wire Wire Line
	1100 5200 1550 5200
Wire Wire Line
	1100 5300 1550 5300
Wire Wire Line
	1100 5400 1550 5400
$Comp
L power:GND #PWR041
U 1 1 6002748D
P 8650 4100
F 0 "#PWR041" H 8650 3850 50  0001 C CNN
F 1 "GND" V 8655 3972 50  0000 R CNN
F 2 "" H 8650 4100 50  0001 C CNN
F 3 "" H 8650 4100 50  0001 C CNN
	1    8650 4100
	0    1    -1   0   
$EndComp
$Comp
L power:GND #PWR042
U 1 1 60027BE4
P 8650 4700
F 0 "#PWR042" H 8650 4450 50  0001 C CNN
F 1 "GND" V 8655 4572 50  0000 R CNN
F 2 "" H 8650 4700 50  0001 C CNN
F 3 "" H 8650 4700 50  0001 C CNN
	1    8650 4700
	0    1    -1   0   
$EndComp
$Comp
L power:GND #PWR043
U 1 1 60027DEA
P 8650 5300
F 0 "#PWR043" H 8650 5050 50  0001 C CNN
F 1 "GND" V 8655 5172 50  0000 R CNN
F 2 "" H 8650 5300 50  0001 C CNN
F 3 "" H 8650 5300 50  0001 C CNN
	1    8650 5300
	0    1    -1   0   
$EndComp
$Comp
L power:GND #PWR044
U 1 1 60028050
P 8650 5900
F 0 "#PWR044" H 8650 5650 50  0001 C CNN
F 1 "GND" V 8655 5772 50  0000 R CNN
F 2 "" H 8650 5900 50  0001 C CNN
F 3 "" H 8650 5900 50  0001 C CNN
	1    8650 5900
	0    1    -1   0   
$EndComp
Wire Notes Line
	550  5750 1300 5750
Wire Notes Line
	1300 5750 1300 6300
Wire Notes Line
	1300 6300 550  6300
Wire Notes Line
	550  6300 550  5750
Text Notes 600  6250 0    50   ~ 0
SDA->sda_prog\nSCL->scl_prog\nPA1->rst_prog\nPA0->prog_en
Text Notes 550  5850 0    50   ~ 0
CY7C68013A pinout
Wire Wire Line
	3400 4700 3300 4700
Wire Wire Line
	3150 4700 3300 4700
$Comp
L Device:LED D2
U 1 1 60097CAD
P 1450 6100
F 0 "D2" V 1500 6000 50  0000 R CNN
F 1 "LED" V 1400 6000 50  0000 R CNN
F 2 "LED_SMD:LED_0603_1608Metric_Pad1.05x0.95mm_HandSolder" H 1450 6100 50  0001 C CNN
F 3 "~" H 1450 6100 50  0001 C CNN
	1    1450 6100
	0    -1   -1   0   
$EndComp
$Comp
L Device:R R30
U 1 1 60097CB3
P 1600 6350
F 0 "R30" V 1500 6350 50  0000 C CNN
F 1 "470R" V 1400 6350 50  0000 C CNN
F 2 "Resistor_SMD:R_0603_1608Metric" V 1530 6350 50  0001 C CNN
F 3 "~" H 1600 6350 50  0001 C CNN
	1    1600 6350
	0    -1   -1   0   
$EndComp
Wire Wire Line
	1450 6250 1450 6350
Wire Wire Line
	1750 6350 1900 6350
Wire Wire Line
	1450 5950 1450 5750
Wire Wire Line
	1450 5750 1550 5750
$Comp
L power:GND #PWR037
U 1 1 600A3DDB
P 1900 6350
F 0 "#PWR037" H 1900 6100 50  0001 C CNN
F 1 "GND" V 1905 6222 50  0000 R CNN
F 2 "" H 1900 6350 50  0001 C CNN
F 3 "" H 1900 6350 50  0001 C CNN
	1    1900 6350
	0    -1   -1   0   
$EndComp
Wire Wire Line
	4500 5400 4600 5400
Wire Wire Line
	3950 4300 4600 4300
$Comp
L Device:LED D3
U 1 1 600B96E6
P 4500 5750
F 0 "D3" V 4550 5950 50  0000 R CNN
F 1 "LED" V 4450 6000 50  0000 R CNN
F 2 "LED_SMD:LED_0603_1608Metric_Pad1.05x0.95mm_HandSolder" H 4500 5750 50  0001 C CNN
F 3 "~" H 4500 5750 50  0001 C CNN
	1    4500 5750
	0    -1   -1   0   
$EndComp
Wire Wire Line
	4500 5600 4500 5400
Connection ~ 4500 5400
$Comp
L power:GND #PWR040
U 1 1 600CD76C
P 4500 6200
F 0 "#PWR040" H 4500 5950 50  0001 C CNN
F 1 "GND" H 4505 6027 50  0000 C CNN
F 2 "" H 4500 6200 50  0001 C CNN
F 3 "" H 4500 6200 50  0001 C CNN
	1    4500 6200
	1    0    0    -1  
$EndComp
$Sheet
S 1150 3400 550  400 
U 600D113E
F0 "osc" 50
F1 "osc.sch" 50
F2 "X1" I R 1700 3650 50 
F3 "X2" I R 1700 3550 50 
F4 "clk_cv" I L 1150 3600 50 
$EndSheet
Text Label 850  3600 0    50   ~ 0
clk_cv
Wire Wire Line
	850  3600 1150 3600
Wire Wire Line
	1700 3550 3750 3550
Wire Wire Line
	3750 3550 3750 2700
Wire Wire Line
	3750 2700 4500 2700
Wire Wire Line
	1700 3650 3800 3650
Wire Wire Line
	3800 3650 3800 2800
Wire Wire Line
	3800 2800 4500 2800
Wire Wire Line
	3650 2300 4500 2300
Wire Wire Line
	4500 2600 3450 2600
$Comp
L Device:C C17
U 1 1 601430F4
P 3450 2750
F 0 "C17" H 3565 2796 50  0000 L CNN
F 1 "100nF" H 3565 2705 50  0000 L CNN
F 2 "Capacitor_SMD:C_0603_1608Metric" H 3488 2600 50  0001 C CNN
F 3 "~" H 3450 2750 50  0001 C CNN
	1    3450 2750
	1    0    0    -1  
$EndComp
$Comp
L Device:C C16
U 1 1 601430FA
P 3200 2750
F 0 "C16" H 2950 2800 50  0000 L CNN
F 1 "1uF" H 3000 2700 50  0000 L CNN
F 2 "Capacitor_SMD:C_0603_1608Metric" H 3238 2600 50  0001 C CNN
F 3 "~" H 3200 2750 50  0001 C CNN
	1    3200 2750
	1    0    0    -1  
$EndComp
$Comp
L Device:C C15
U 1 1 601491BD
P 2750 2550
F 0 "C15" H 2865 2596 50  0000 L CNN
F 1 "100nF" H 2865 2505 50  0000 L CNN
F 2 "Capacitor_SMD:C_0603_1608Metric" H 2788 2400 50  0001 C CNN
F 3 "~" H 2750 2550 50  0001 C CNN
	1    2750 2550
	1    0    0    -1  
$EndComp
$Comp
L Device:C C14
U 1 1 601491C3
P 2500 2550
F 0 "C14" H 2200 2600 50  0000 L CNN
F 1 "1uF" H 2250 2500 50  0000 L CNN
F 2 "Capacitor_SMD:C_0603_1608Metric" H 2538 2400 50  0001 C CNN
F 3 "~" H 2500 2550 50  0001 C CNN
	1    2500 2550
	1    0    0    -1  
$EndComp
Connection ~ 3450 2600
Wire Wire Line
	3450 2600 3200 2600
Wire Wire Line
	2500 2700 2500 2900
Wire Wire Line
	2500 2900 2750 2900
Connection ~ 3200 2900
Wire Wire Line
	3200 2900 3450 2900
Wire Wire Line
	2750 2700 2750 2900
Connection ~ 2750 2900
Wire Wire Line
	2750 2900 2950 2900
$Comp
L power:GND #PWR0107
U 1 1 6017104D
P 2950 2900
F 0 "#PWR0107" H 2950 2650 50  0001 C CNN
F 1 "GND" H 2955 2727 50  0000 C CNN
F 2 "" H 2950 2900 50  0001 C CNN
F 3 "" H 2950 2900 50  0001 C CNN
	1    2950 2900
	1    0    0    -1  
$EndComp
Connection ~ 2950 2900
Wire Wire Line
	2950 2900 3200 2900
$Comp
L power:VDDA #PWR0108
U 1 1 60171A1E
P 2500 2400
F 0 "#PWR0108" H 2500 2250 50  0001 C CNN
F 1 "VDDA" H 2500 2550 50  0000 C CNN
F 2 "" H 2500 2400 50  0001 C CNN
F 3 "" H 2500 2400 50  0001 C CNN
	1    2500 2400
	1    0    0    -1  
$EndComp
Connection ~ 2500 2400
$Comp
L power:VDD #PWR0119
U 1 1 60173508
P 3200 2600
F 0 "#PWR0119" H 3200 2450 50  0001 C CNN
F 1 "VDD" H 3200 2750 50  0000 C CNN
F 2 "" H 3200 2600 50  0001 C CNN
F 3 "" H 3200 2600 50  0001 C CNN
	1    3200 2600
	1    0    0    -1  
$EndComp
Connection ~ 3200 2600
$Comp
L power:GND #PWR0121
U 1 1 60195D7E
P 1350 1450
F 0 "#PWR0121" H 1350 1200 50  0001 C CNN
F 1 "GND" H 1355 1277 50  0000 C CNN
F 2 "" H 1350 1450 50  0001 C CNN
F 3 "" H 1350 1450 50  0001 C CNN
	1    1350 1450
	0    -1   -1   0   
$EndComp
$Comp
L power:GND #PWR0122
U 1 1 60195FE5
P 1350 800
F 0 "#PWR0122" H 1350 550 50  0001 C CNN
F 1 "GND" H 1355 627 50  0000 C CNN
F 2 "" H 1350 800 50  0001 C CNN
F 3 "" H 1350 800 50  0001 C CNN
	1    1350 800 
	0    -1   -1   0   
$EndComp
$Comp
L Device:R R46
U 1 1 601A34C4
P 1950 900
F 0 "R46" V 2150 900 50  0000 C CNN
F 1 "36K" V 2050 900 50  0000 C CNN
F 2 "Resistor_SMD:R_0603_1608Metric" V 1880 900 50  0001 C CNN
F 3 "~" H 1950 900 50  0001 C CNN
	1    1950 900 
	0    -1   -1   0   
$EndComp
$Comp
L Device:R R48
U 1 1 601A380D
P 2300 1050
F 0 "R48" H 2500 1050 50  0000 C CNN
F 1 "6K8" H 2500 1150 50  0000 C CNN
F 2 "Resistor_SMD:R_0603_1608Metric" V 2230 1050 50  0001 C CNN
F 3 "~" H 2300 1050 50  0001 C CNN
	1    2300 1050
	-1   0    0    1   
$EndComp
Wire Wire Line
	2500 2400 2750 2400
Connection ~ 2750 2400
Wire Wire Line
	2750 2400 4500 2400
$Comp
L Device:C C18
U 1 1 601BABA4
P 2600 1050
F 0 "C18" H 2715 1096 50  0000 L CNN
F 1 "220pF" H 2715 1005 50  0000 L CNN
F 2 "Capacitor_SMD:C_0603_1608Metric" H 2638 900 50  0001 C CNN
F 3 "~" H 2600 1050 50  0001 C CNN
	1    2600 1050
	1    0    0    -1  
$EndComp
$Comp
L Device:C C20
U 1 1 601BAD57
P 3000 900
F 0 "C20" V 2750 800 50  0000 L CNN
F 1 "1uF" V 2850 850 50  0000 L CNN
F 2 "Capacitor_SMD:C_0603_1608Metric" H 3038 750 50  0001 C CNN
F 3 "~" H 3000 900 50  0001 C CNN
	1    3000 900 
	0    1    1    0   
$EndComp
$Comp
L Device:R R50
U 1 1 601BB09C
P 3450 900
F 0 "R50" V 3650 900 50  0000 C CNN
F 1 "1K" V 3550 900 50  0000 C CNN
F 2 "Resistor_SMD:R_0603_1608Metric" V 3380 900 50  0001 C CNN
F 3 "~" H 3450 900 50  0001 C CNN
	1    3450 900 
	0    -1   -1   0   
$EndComp
$Comp
L Device:C C22
U 1 1 601BB30C
P 3750 1050
F 0 "C22" H 3865 1096 50  0000 L CNN
F 1 "1nF" H 3865 1005 50  0000 L CNN
F 2 "Capacitor_SMD:C_0603_1608Metric" H 3788 900 50  0001 C CNN
F 3 "~" H 3750 1050 50  0001 C CNN
	1    3750 1050
	1    0    0    -1  
$EndComp
Wire Wire Line
	1350 900  1700 900 
Wire Wire Line
	2100 900  2300 900 
Connection ~ 2300 900 
Wire Wire Line
	2300 900  2600 900 
Connection ~ 2600 900 
Wire Wire Line
	2600 900  2850 900 
Wire Wire Line
	3150 900  3300 900 
Wire Wire Line
	1350 1650 1700 1650
Connection ~ 1700 900 
Wire Wire Line
	1700 900  1800 900 
Wire Wire Line
	3600 900  3750 900 
$Comp
L power:GND #PWR053
U 1 1 601E33CB
P 2300 1200
F 0 "#PWR053" H 2300 950 50  0001 C CNN
F 1 "GND" H 2305 1027 50  0000 C CNN
F 2 "" H 2300 1200 50  0001 C CNN
F 3 "" H 2300 1200 50  0001 C CNN
	1    2300 1200
	1    0    0    -1  
$EndComp
$Comp
L power:GND #PWR055
U 1 1 601E3526
P 2600 1200
F 0 "#PWR055" H 2600 950 50  0001 C CNN
F 1 "GND" H 2605 1027 50  0000 C CNN
F 2 "" H 2600 1200 50  0001 C CNN
F 3 "" H 2600 1200 50  0001 C CNN
	1    2600 1200
	1    0    0    -1  
$EndComp
$Comp
L power:GND #PWR057
U 1 1 601E3787
P 3750 1200
F 0 "#PWR057" H 3750 950 50  0001 C CNN
F 1 "GND" H 3755 1027 50  0000 C CNN
F 2 "" H 3750 1200 50  0001 C CNN
F 3 "" H 3750 1200 50  0001 C CNN
	1    3750 1200
	1    0    0    -1  
$EndComp
$Comp
L Device:R R47
U 1 1 601E638E
P 1950 1550
F 0 "R47" V 2150 1550 50  0000 C CNN
F 1 "36K" V 2050 1550 50  0000 C CNN
F 2 "Resistor_SMD:R_0603_1608Metric" V 1880 1550 50  0001 C CNN
F 3 "~" H 1950 1550 50  0001 C CNN
	1    1950 1550
	0    -1   -1   0   
$EndComp
$Comp
L Device:R R49
U 1 1 601E6394
P 2300 1700
F 0 "R49" H 2500 1700 50  0000 C CNN
F 1 "6K8" H 2500 1800 50  0000 C CNN
F 2 "Resistor_SMD:R_0603_1608Metric" V 2230 1700 50  0001 C CNN
F 3 "~" H 2300 1700 50  0001 C CNN
	1    2300 1700
	-1   0    0    1   
$EndComp
$Comp
L Device:C C19
U 1 1 601E639A
P 2600 1700
F 0 "C19" H 2715 1746 50  0000 L CNN
F 1 "220pF" H 2715 1655 50  0000 L CNN
F 2 "Capacitor_SMD:C_0603_1608Metric" H 2638 1550 50  0001 C CNN
F 3 "~" H 2600 1700 50  0001 C CNN
	1    2600 1700
	1    0    0    -1  
$EndComp
$Comp
L Device:C C21
U 1 1 601E63A0
P 3000 1550
F 0 "C21" V 2750 1450 50  0000 L CNN
F 1 "1uF" V 2850 1500 50  0000 L CNN
F 2 "Capacitor_SMD:C_0603_1608Metric" H 3038 1400 50  0001 C CNN
F 3 "~" H 3000 1550 50  0001 C CNN
	1    3000 1550
	0    1    1    0   
$EndComp
$Comp
L Device:R R51
U 1 1 601E63A6
P 3450 1550
F 0 "R51" V 3650 1550 50  0000 C CNN
F 1 "1K" V 3550 1550 50  0000 C CNN
F 2 "Resistor_SMD:R_0603_1608Metric" V 3380 1550 50  0001 C CNN
F 3 "~" H 3450 1550 50  0001 C CNN
	1    3450 1550
	0    -1   -1   0   
$EndComp
$Comp
L Device:C C23
U 1 1 601E63AC
P 3750 1700
F 0 "C23" H 3865 1746 50  0000 L CNN
F 1 "1nF" H 3865 1655 50  0000 L CNN
F 2 "Capacitor_SMD:C_0603_1608Metric" H 3788 1550 50  0001 C CNN
F 3 "~" H 3750 1700 50  0001 C CNN
	1    3750 1700
	1    0    0    -1  
$EndComp
Wire Wire Line
	2100 1550 2300 1550
Connection ~ 2300 1550
Wire Wire Line
	2300 1550 2600 1550
Connection ~ 2600 1550
Wire Wire Line
	2600 1550 2850 1550
Wire Wire Line
	3150 1550 3300 1550
Wire Wire Line
	3600 1550 3750 1550
$Comp
L power:GND #PWR054
U 1 1 601E63BA
P 2300 1850
F 0 "#PWR054" H 2300 1600 50  0001 C CNN
F 1 "GND" H 2305 1677 50  0000 C CNN
F 2 "" H 2300 1850 50  0001 C CNN
F 3 "" H 2300 1850 50  0001 C CNN
	1    2300 1850
	1    0    0    -1  
$EndComp
$Comp
L power:GND #PWR056
U 1 1 601E63C0
P 2600 1850
F 0 "#PWR056" H 2600 1600 50  0001 C CNN
F 1 "GND" H 2605 1677 50  0000 C CNN
F 2 "" H 2600 1850 50  0001 C CNN
F 3 "" H 2600 1850 50  0001 C CNN
	1    2600 1850
	1    0    0    -1  
$EndComp
$Comp
L power:GND #PWR058
U 1 1 601E63C6
P 3750 1850
F 0 "#PWR058" H 3750 1600 50  0001 C CNN
F 1 "GND" H 3755 1677 50  0000 C CNN
F 2 "" H 3750 1850 50  0001 C CNN
F 3 "" H 3750 1850 50  0001 C CNN
	1    3750 1850
	1    0    0    -1  
$EndComp
Wire Wire Line
	3750 1550 4400 1550
Wire Wire Line
	4400 1550 4400 2000
Wire Wire Line
	4400 2000 4500 2000
Connection ~ 3750 1550
Connection ~ 3750 900 
$Comp
L power:GND #PWR060
U 1 1 602450B7
P 5400 2200
F 0 "#PWR060" H 5400 1950 50  0001 C CNN
F 1 "GND" V 5405 2072 50  0000 R CNN
F 2 "" H 5400 2200 50  0001 C CNN
F 3 "" H 5400 2200 50  0001 C CNN
	1    5400 2200
	0    -1   -1   0   
$EndComp
$Comp
L power:VDDA #PWR064
U 1 1 6024E686
P 6850 1750
F 0 "#PWR064" H 6850 1600 50  0001 C CNN
F 1 "VDDA" H 6850 1900 50  0000 C CNN
F 2 "" H 6850 1750 50  0001 C CNN
F 3 "" H 6850 1750 50  0001 C CNN
	1    6850 1750
	1    0    0    -1  
$EndComp
$Comp
L Device:R R52
U 1 1 6024E924
P 6600 1750
F 0 "R52" V 6800 1800 50  0000 C CNN
F 1 "100R" V 6700 1800 50  0000 C CNN
F 2 "Resistor_SMD:R_0603_1608Metric" V 6530 1750 50  0001 C CNN
F 3 "~" H 6600 1750 50  0001 C CNN
	1    6600 1750
	0    -1   -1   0   
$EndComp
$Comp
L Device:C C26
U 1 1 6025F4CA
P 6450 1900
F 0 "C26" H 6565 1946 50  0000 L CNN
F 1 "100nF" H 6565 1855 50  0000 L CNN
F 2 "Capacitor_SMD:C_0603_1608Metric" H 6488 1750 50  0001 C CNN
F 3 "~" H 6450 1900 50  0001 C CNN
	1    6450 1900
	1    0    0    -1  
$EndComp
$Comp
L power:GND #PWR063
U 1 1 602686FD
P 6450 2050
F 0 "#PWR063" H 6450 1800 50  0001 C CNN
F 1 "GND" H 6455 1877 50  0000 C CNN
F 2 "" H 6450 2050 50  0001 C CNN
F 3 "" H 6450 2050 50  0001 C CNN
	1    6450 2050
	1    0    0    -1  
$EndComp
Wire Wire Line
	5800 1750 5800 2100
Wire Wire Line
	5800 2100 5400 2100
$Comp
L Device:C C25
U 1 1 6028BBD7
P 6000 2100
F 0 "C25" H 6115 2146 50  0000 L CNN
F 1 "100nF" H 6115 2055 50  0000 L CNN
F 2 "Capacitor_SMD:C_0603_1608Metric" H 6038 1950 50  0001 C CNN
F 3 "~" H 6000 2100 50  0001 C CNN
	1    6000 2100
	1    0    0    -1  
$EndComp
$Comp
L power:VDD #PWR061
U 1 1 6028BBDE
P 6000 1950
F 0 "#PWR061" H 6000 1800 50  0001 C CNN
F 1 "VDD" H 6000 2100 50  0000 C CNN
F 2 "" H 6000 1950 50  0001 C CNN
F 3 "" H 6000 1950 50  0001 C CNN
	1    6000 1950
	1    0    0    -1  
$EndComp
Wire Wire Line
	6050 2500 6200 2500
$Comp
L power:GND #PWR062
U 1 1 6029D885
P 6000 2250
F 0 "#PWR062" H 6000 2000 50  0001 C CNN
F 1 "GND" H 6005 2077 50  0000 C CNN
F 2 "" H 6000 2250 50  0001 C CNN
F 3 "" H 6000 2250 50  0001 C CNN
	1    6000 2250
	1    0    0    -1  
$EndComp
Connection ~ 6200 2500
Wire Wire Line
	6200 2500 6300 2500
Wire Wire Line
	5400 2400 5850 2400
Wire Wire Line
	5850 2400 5850 1950
Wire Wire Line
	5850 1950 6000 1950
Connection ~ 6000 1950
Wire Wire Line
	6850 1750 6750 1750
$Comp
L Device:C C24
U 1 1 602E5BD2
P 4150 2100
F 0 "C24" V 4400 2050 50  0000 L CNN
F 1 "1uF" V 4300 2100 50  0000 L CNN
F 2 "Capacitor_SMD:C_0603_1608Metric" H 4188 1950 50  0001 C CNN
F 3 "~" H 4150 2100 50  0001 C CNN
	1    4150 2100
	0    -1   -1   0   
$EndComp
$Comp
L power:GND #PWR059
U 1 1 602F78DB
P 4000 2100
F 0 "#PWR059" H 4000 1850 50  0001 C CNN
F 1 "GND" V 4005 1972 50  0000 R CNN
F 2 "" H 4000 2100 50  0001 C CNN
F 3 "" H 4000 2100 50  0001 C CNN
	1    4000 2100
	0    1    1    0   
$EndComp
Wire Wire Line
	4300 2100 4500 2100
$Comp
L Amplifier_Operational:TL072 U14
U 1 1 6030C3F9
P 9450 1650
F 0 "U14" H 9450 1350 50  0000 C CNN
F 1 "TL072" H 9450 1450 50  0000 C CNN
F 2 "Package_SO:TSSOP-8_4.4x3mm_P0.65mm" H 9450 1650 50  0001 C CNN
F 3 "http://www.ti.com/lit/ds/symlink/tl071.pdf" H 9450 1650 50  0001 C CNN
	1    9450 1650
	1    0    0    1   
$EndComp
$Comp
L Amplifier_Operational:TL072 U14
U 3 1 60311BF0
P 9950 3600
F 0 "U14" H 9908 3646 50  0000 L CNN
F 1 "TL072" H 9908 3555 50  0000 L CNN
F 2 "Package_SO:TSSOP-8_4.4x3mm_P0.65mm" H 9950 3600 50  0001 C CNN
F 3 "http://www.ti.com/lit/ds/symlink/tl071.pdf" H 9950 3600 50  0001 C CNN
	3    9950 3600
	1    0    0    -1  
$EndComp
$Comp
L Amplifier_Operational:MCP6002-xSN U13
U 1 1 6032EBF1
P 5000 1300
F 0 "U13" H 5150 1150 50  0000 C CNN
F 1 "MCP6002-xSN" H 5150 1500 50  0000 C CNN
F 2 "Package_SO:MSOP-8_3x3mm_P0.65mm" H 5000 1300 50  0001 C CNN
F 3 "http://ww1.microchip.com/downloads/en/DeviceDoc/21733j.pdf" H 5000 1300 50  0001 C CNN
	1    5000 1300
	1    0    0    -1  
$EndComp
$Comp
L Amplifier_Operational:MCP6002-xSN U13
U 2 1 60330894
P 5050 750
F 0 "U13" H 5200 600 50  0000 C CNN
F 1 "MCP6002-xSN" H 5200 950 50  0000 C CNN
F 2 "Package_SO:MSOP-8_3x3mm_P0.65mm" H 5050 750 50  0001 C CNN
F 3 "http://ww1.microchip.com/downloads/en/DeviceDoc/21733j.pdf" H 5050 750 50  0001 C CNN
	2    5050 750 
	1    0    0    -1  
$EndComp
$Comp
L Amplifier_Operational:MCP6002-xSN U13
U 3 1 60334086
P 1200 2550
F 0 "U13" H 1158 2596 50  0000 L CNN
F 1 "MCP6002-xSN" H 1158 2505 50  0000 L CNN
F 2 "Package_SO:MSOP-8_3x3mm_P0.65mm" H 1200 2550 50  0001 C CNN
F 3 "http://ww1.microchip.com/downloads/en/DeviceDoc/21733j.pdf" H 1200 2550 50  0001 C CNN
	3    1200 2550
	-1   0    0    1   
$EndComp
Wire Wire Line
	4750 850  4750 1000
Wire Wire Line
	4750 1000 5350 1000
Wire Wire Line
	5350 1000 5350 750 
Wire Wire Line
	4700 1400 4700 1550
Wire Wire Line
	4700 1550 5300 1550
Wire Wire Line
	5300 1550 5300 1300
Wire Wire Line
	1700 900  1700 1650
Wire Wire Line
	1350 1550 1800 1550
Wire Wire Line
	3750 900  4500 900 
$Comp
L Device:C C27
U 1 1 6037B51F
P 6000 750
F 0 "C27" V 5850 450 50  0000 L CNN
F 1 "3.3uF" V 5950 450 50  0000 L CNN
F 2 "Capacitor_SMD:C_0603_1608Metric" H 6038 600 50  0001 C CNN
F 3 "~" H 6000 750 50  0001 C CNN
	1    6000 750 
	0    1    1    0   
$EndComp
$Comp
L Device:C C28
U 1 1 6037B802
P 5750 1000
F 0 "C28" V 5600 700 50  0000 L CNN
F 1 "3.3uF" V 5700 700 50  0000 L CNN
F 2 "Capacitor_SMD:C_0603_1608Metric" H 5788 850 50  0001 C CNN
F 3 "~" H 5750 1000 50  0001 C CNN
	1    5750 1000
	0    1    1    0   
$EndComp
$Comp
L Device:R R61
U 1 1 6037BFDF
P 9300 2400
F 0 "R61" V 9500 2400 50  0000 C CNN
F 1 "430K" V 9400 2400 50  0000 C CNN
F 2 "Resistor_SMD:R_0603_1608Metric" V 9230 2400 50  0001 C CNN
F 3 "~" H 9300 2400 50  0001 C CNN
	1    9300 2400
	0    -1   -1   0   
$EndComp
$Comp
L Device:R R62
U 1 1 6038939B
P 9350 1200
F 0 "R62" V 9550 1200 50  0000 C CNN
F 1 "430K" V 9450 1200 50  0000 C CNN
F 2 "Resistor_SMD:R_0603_1608Metric" V 9280 1200 50  0001 C CNN
F 3 "~" H 9350 1200 50  0001 C CNN
	1    9350 1200
	0    -1   -1   0   
$EndComp
$Comp
L Device:C C31
U 1 1 603A1EED
P 9300 2050
F 0 "C31" V 9100 2100 50  0000 L CNN
F 1 "4.7pF" V 9200 2150 50  0000 L CNN
F 2 "Capacitor_SMD:C_0603_1608Metric" H 9338 1900 50  0001 C CNN
F 3 "~" H 9300 2050 50  0001 C CNN
	1    9300 2050
	0    1    1    0   
$EndComp
$Comp
L Device:C C32
U 1 1 603A212F
P 9350 850
F 0 "C32" V 9100 750 50  0000 L CNN
F 1 "4.7pF" V 9200 800 50  0000 L CNN
F 2 "Capacitor_SMD:C_0603_1608Metric" H 9388 700 50  0001 C CNN
F 3 "~" H 9350 850 50  0001 C CNN
	1    9350 850 
	0    1    1    0   
$EndComp
$Comp
L Device:R_POT_Dual RV9
U 1 1 603D0522
P 8000 1350
F 0 "RV9" V 8250 1150 50  0000 R CNN
F 1 "20K" V 7750 1150 50  0000 R CNN
F 2 "benou-footprints:Potentiometer_Alpha_RD902F-40-00D_Dual_Vertical_CircularHoles" H 8250 1275 50  0001 C CNN
F 3 "~" H 8250 1275 50  0001 C CNN
	1    8000 1350
	0    1    1    0   
$EndComp
Wire Wire Line
	4500 900  4500 1900
$Comp
L power:GND #PWR066
U 1 1 6040AC30
P 8100 1600
F 0 "#PWR066" H 8100 1350 50  0001 C CNN
F 1 "GND" V 8105 1472 50  0000 R CNN
F 2 "" H 8100 1600 50  0001 C CNN
F 3 "" H 8100 1600 50  0001 C CNN
	1    8100 1600
	0    -1   -1   0   
$EndComp
$Comp
L power:GND #PWR065
U 1 1 6040B0C5
P 8100 1100
F 0 "#PWR065" H 8100 850 50  0001 C CNN
F 1 "GND" V 8105 972 50  0000 R CNN
F 2 "" H 8100 1100 50  0001 C CNN
F 3 "" H 8100 1100 50  0001 C CNN
	1    8100 1100
	0    -1   -1   0   
$EndComp
$Comp
L Device:R R53
U 1 1 6040C05F
P 7500 950
F 0 "R53" V 7700 950 50  0000 C CNN
F 1 "28K" V 7600 950 50  0000 C CNN
F 2 "Resistor_SMD:R_0603_1608Metric" V 7430 950 50  0001 C CNN
F 3 "~" H 7500 950 50  0001 C CNN
	1    7500 950 
	0    -1   -1   0   
$EndComp
$Comp
L Device:R R54
U 1 1 6040C2BB
P 7500 1250
F 0 "R54" V 7700 1250 50  0000 C CNN
F 1 "28K" V 7600 1250 50  0000 C CNN
F 2 "Resistor_SMD:R_0603_1608Metric" V 7430 1250 50  0001 C CNN
F 3 "~" H 7500 1250 50  0001 C CNN
	1    7500 1250
	0    -1   -1   0   
$EndComp
$Comp
L Device:R R55
U 1 1 6040DC96
P 7500 1450
F 0 "R55" V 7650 1650 50  0000 C CNN
F 1 "28K" V 7550 1650 50  0000 C CNN
F 2 "Resistor_SMD:R_0603_1608Metric" V 7430 1450 50  0001 C CNN
F 3 "~" H 7500 1450 50  0001 C CNN
	1    7500 1450
	0    -1   -1   0   
$EndComp
$Comp
L Device:R R56
U 1 1 6040DC9C
P 7500 1750
F 0 "R56" V 7700 1750 50  0000 C CNN
F 1 "28K" V 7600 1750 50  0000 C CNN
F 2 "Resistor_SMD:R_0603_1608Metric" V 7430 1750 50  0001 C CNN
F 3 "~" H 7500 1750 50  0001 C CNN
	1    7500 1750
	0    -1   -1   0   
$EndComp
$Comp
L Device:R R57
U 1 1 6042D657
P 8700 950
F 0 "R57" V 8900 950 50  0000 C CNN
F 1 "28K" V 8800 950 50  0000 C CNN
F 2 "Resistor_SMD:R_0603_1608Metric" V 8630 950 50  0001 C CNN
F 3 "~" H 8700 950 50  0001 C CNN
	1    8700 950 
	0    -1   -1   0   
$EndComp
$Comp
L Device:R R58
U 1 1 6042D65D
P 8700 1250
F 0 "R58" V 8900 1250 50  0000 C CNN
F 1 "28K" V 8800 1250 50  0000 C CNN
F 2 "Resistor_SMD:R_0603_1608Metric" V 8630 1250 50  0001 C CNN
F 3 "~" H 8700 1250 50  0001 C CNN
	1    8700 1250
	0    -1   -1   0   
$EndComp
$Comp
L Device:R R59
U 1 1 6042D663
P 8700 1450
F 0 "R59" V 8850 1700 50  0000 C CNN
F 1 "28K" V 8750 1700 50  0000 C CNN
F 2 "Resistor_SMD:R_0603_1608Metric" V 8630 1450 50  0001 C CNN
F 3 "~" H 8700 1450 50  0001 C CNN
	1    8700 1450
	0    -1   -1   0   
$EndComp
$Comp
L Device:R R60
U 1 1 6042D669
P 8700 1750
F 0 "R60" V 8900 1750 50  0000 C CNN
F 1 "28K" V 8800 1750 50  0000 C CNN
F 2 "Resistor_SMD:R_0603_1608Metric" V 8630 1750 50  0001 C CNN
F 3 "~" H 8700 1750 50  0001 C CNN
	1    8700 1750
	0    -1   -1   0   
$EndComp
Wire Wire Line
	7650 1450 7900 1450
Connection ~ 7900 1450
Wire Wire Line
	7900 1450 8550 1450
Wire Wire Line
	7650 1750 7900 1750
Connection ~ 7900 1750
Wire Wire Line
	7900 1750 8550 1750
Wire Wire Line
	7650 1250 7900 1250
Connection ~ 7900 1250
Wire Wire Line
	7900 1250 8550 1250
Connection ~ 7900 950 
Wire Wire Line
	7900 950  8550 950 
$Comp
L Device:C C29
U 1 1 6046B446
P 6250 1250
F 0 "C29" V 6100 950 50  0000 L CNN
F 1 "3.3uF" V 6200 950 50  0000 L CNN
F 2 "Capacitor_SMD:C_0603_1608Metric" H 6288 1100 50  0001 C CNN
F 3 "~" H 6250 1250 50  0001 C CNN
	1    6250 1250
	0    1    1    0   
$EndComp
$Comp
L Device:C C30
U 1 1 6046B44C
P 6000 1500
F 0 "C30" V 5850 1200 50  0000 L CNN
F 1 "3.3uF" V 5950 1200 50  0000 L CNN
F 2 "Capacitor_SMD:C_0603_1608Metric" H 6038 1350 50  0001 C CNN
F 3 "~" H 6000 1500 50  0001 C CNN
	1    6000 1500
	0    1    1    0   
$EndComp
Wire Wire Line
	5300 1300 5450 1300
Wire Wire Line
	5450 1300 5450 1000
Connection ~ 5300 1300
Wire Wire Line
	5350 750  5850 750 
Connection ~ 5350 750 
Wire Wire Line
	5400 1900 5550 1900
Wire Wire Line
	5550 1900 5550 1250
Wire Wire Line
	5550 1250 6100 1250
Wire Wire Line
	5650 2000 5650 1500
Wire Wire Line
	6150 1500 7000 1500
Wire Wire Line
	7000 1500 7000 1750
Wire Wire Line
	7000 1750 7350 1750
Wire Wire Line
	7100 1000 7100 1450
Wire Wire Line
	7100 1450 7350 1450
Wire Wire Line
	6400 1250 7350 1250
Wire Wire Line
	6150 750  7200 750 
Wire Wire Line
	7200 750  7200 950 
Wire Wire Line
	7200 950  7350 950 
Wire Wire Line
	8850 1450 8850 1750
Wire Wire Line
	8850 2750 9100 2750
Connection ~ 8850 1750
Wire Wire Line
	8850 1750 8850 2050
Wire Wire Line
	9150 1550 9000 1550
Wire Wire Line
	9000 1550 9000 1250
Wire Wire Line
	9000 950  8850 950 
Wire Wire Line
	8850 1250 9000 1250
Connection ~ 9000 1250
Wire Wire Line
	9000 1250 9000 1200
$Comp
L power:GND #PWR068
U 1 1 6050E7CA
P 9150 1750
F 0 "#PWR068" H 9150 1500 50  0001 C CNN
F 1 "GND" H 9155 1577 50  0000 C CNN
F 2 "" H 9150 1750 50  0001 C CNN
F 3 "" H 9150 1750 50  0001 C CNN
	1    9150 1750
	1    0    0    -1  
$EndComp
$Comp
L power:GND #PWR067
U 1 1 6050EA38
P 9100 2950
F 0 "#PWR067" H 9100 2700 50  0001 C CNN
F 1 "GND" H 9105 2777 50  0000 C CNN
F 2 "" H 9100 2950 50  0001 C CNN
F 3 "" H 9100 2950 50  0001 C CNN
	1    9100 2950
	1    0    0    -1  
$EndComp
Wire Wire Line
	8850 2050 9150 2050
Connection ~ 8850 2050
Wire Wire Line
	8850 2050 8850 2400
Wire Wire Line
	8850 2400 9150 2400
Connection ~ 8850 2400
Wire Wire Line
	8850 2400 8850 2750
Wire Wire Line
	9000 950  9000 850 
Wire Wire Line
	9000 850  9200 850 
Connection ~ 9000 950 
Wire Wire Line
	9000 1200 9200 1200
Connection ~ 9000 1200
Wire Wire Line
	9000 1200 9000 950 
Wire Wire Line
	9500 1200 9900 1200
Wire Wire Line
	9900 1200 9900 1650
Wire Wire Line
	9900 1650 9750 1650
Wire Wire Line
	9900 1200 9900 850 
Wire Wire Line
	9900 850  9500 850 
Connection ~ 9900 1200
Wire Wire Line
	9450 2400 9900 2400
Wire Wire Line
	9900 2400 9900 2850
Wire Wire Line
	9900 2850 9700 2850
Wire Wire Line
	9450 2050 9900 2050
Wire Wire Line
	9900 2050 9900 2400
Connection ~ 9900 2400
Wire Wire Line
	7650 950  7900 950 
Wire Wire Line
	4400 1550 4400 1200
Wire Wire Line
	4400 1200 4700 1200
Connection ~ 4400 1550
Wire Wire Line
	4500 900  4500 650 
Wire Wire Line
	4500 650  4750 650 
Connection ~ 4500 900 
$Comp
L Device:C C33
U 1 1 605AD69F
P 1650 2550
F 0 "C33" H 1400 2450 50  0000 L CNN
F 1 "100nF" H 1300 2550 50  0000 L CNN
F 2 "Capacitor_SMD:C_0603_1608Metric" H 1688 2400 50  0001 C CNN
F 3 "~" H 1650 2550 50  0001 C CNN
	1    1650 2550
	-1   0    0    1   
$EndComp
$Comp
L Device:C C34
U 1 1 605ADCF1
P 9500 3450
F 0 "C34" H 9200 3650 50  0000 L CNN
F 1 "100nF" H 9200 3550 50  0000 L CNN
F 2 "Capacitor_SMD:C_0603_1608Metric" H 9538 3300 50  0001 C CNN
F 3 "~" H 9500 3450 50  0001 C CNN
	1    9500 3450
	1    0    0    -1  
$EndComp
$Comp
L Device:C C35
U 1 1 605ADF6C
P 9500 3750
F 0 "C35" H 9200 3750 50  0000 L CNN
F 1 "100nF" H 9200 3650 50  0000 L CNN
F 2 "Capacitor_SMD:C_0603_1608Metric" H 9538 3600 50  0001 C CNN
F 3 "~" H 9500 3750 50  0001 C CNN
	1    9500 3750
	1    0    0    -1  
$EndComp
$Comp
L power:GND #PWR071
U 1 1 605AE10D
P 9500 3600
F 0 "#PWR071" H 9500 3350 50  0001 C CNN
F 1 "GND" V 9505 3472 50  0000 R CNN
F 2 "" H 9500 3600 50  0001 C CNN
F 3 "" H 9500 3600 50  0001 C CNN
	1    9500 3600
	0    1    1    0   
$EndComp
Connection ~ 9500 3600
$Comp
L power:VDDA #PWR069
U 1 1 605CCCF1
P 1300 2850
F 0 "#PWR069" H 1300 2700 50  0001 C CNN
F 1 "VDDA" H 1300 3000 50  0000 C CNN
F 2 "" H 1300 2850 50  0001 C CNN
F 3 "" H 1300 2850 50  0001 C CNN
	1    1300 2850
	-1   0    0    1   
$EndComp
$Comp
L power:GND #PWR070
U 1 1 605CCFAF
P 1300 2250
F 0 "#PWR070" H 1300 2000 50  0001 C CNN
F 1 "GND" H 1305 2077 50  0000 C CNN
F 2 "" H 1300 2250 50  0001 C CNN
F 3 "" H 1300 2250 50  0001 C CNN
	1    1300 2250
	-1   0    0    1   
$EndComp
Wire Wire Line
	1300 2250 1650 2250
Wire Wire Line
	1650 2250 1650 2400
Connection ~ 1300 2250
Wire Wire Line
	1300 2850 1650 2850
Wire Wire Line
	1650 2850 1650 2700
Connection ~ 1300 2850
$Comp
L power:+12V #PWR0120
U 1 1 6066756A
P 9700 3300
F 0 "#PWR0120" H 9700 3150 50  0001 C CNN
F 1 "+12V" H 9715 3473 50  0000 C CNN
F 2 "" H 9700 3300 50  0001 C CNN
F 3 "" H 9700 3300 50  0001 C CNN
	1    9700 3300
	1    0    0    -1  
$EndComp
$Comp
L power:-12V #PWR0123
U 1 1 60667736
P 9700 3900
F 0 "#PWR0123" H 9700 4000 50  0001 C CNN
F 1 "-12V" H 9715 4073 50  0000 C CNN
F 2 "" H 9700 3900 50  0001 C CNN
F 3 "" H 9700 3900 50  0001 C CNN
	1    9700 3900
	-1   0    0    1   
$EndComp
Wire Wire Line
	9850 3900 9700 3900
Connection ~ 9700 3900
Wire Wire Line
	9700 3900 9500 3900
Wire Wire Line
	9500 3300 9700 3300
Connection ~ 9700 3300
Wire Wire Line
	9700 3300 9850 3300
$Comp
L Connector:AudioJack2_SwitchT J10
U 1 1 6069C0E1
P 10750 1650
F 0 "J10" H 10782 1975 50  0000 C CNN
F 1 "AudioJack2_SwitchT" H 10782 1884 50  0000 C CNN
F 2 "benou-footprints:Jack_3.5mm_QingPu_WQP-PJ398SM_Vertical_CircularHoles" H 10750 1650 50  0001 C CNN
F 3 "~" H 10750 1650 50  0001 C CNN
	1    10750 1650
	-1   0    0    -1  
$EndComp
$Comp
L Connector:AudioJack2_SwitchT J11
U 1 1 6069C0E7
P 10750 2850
F 0 "J11" H 10782 3175 50  0000 C CNN
F 1 "AudioJack2_SwitchT" H 10782 3084 50  0000 C CNN
F 2 "benou-footprints:Jack_3.5mm_QingPu_WQP-PJ398SM_Vertical_CircularHoles" H 10750 2850 50  0001 C CNN
F 3 "~" H 10750 2850 50  0001 C CNN
	1    10750 2850
	-1   0    0    -1  
$EndComp
$Comp
L power:GND #PWR0124
U 1 1 6069C0ED
P 10550 2750
F 0 "#PWR0124" H 10550 2500 50  0001 C CNN
F 1 "GND" H 10555 2577 50  0000 C CNN
F 2 "" H 10550 2750 50  0001 C CNN
F 3 "" H 10550 2750 50  0001 C CNN
	1    10550 2750
	0    1    -1   0   
$EndComp
$Comp
L power:GND #PWR0131
U 1 1 6069C0F3
P 10550 1550
F 0 "#PWR0131" H 10550 1300 50  0001 C CNN
F 1 "GND" H 10555 1377 50  0000 C CNN
F 2 "" H 10550 1550 50  0001 C CNN
F 3 "" H 10550 1550 50  0001 C CNN
	1    10550 1550
	0    1    -1   0   
$EndComp
Wire Wire Line
	10550 1650 9900 1650
Wire Wire Line
	10550 2850 9900 2850
Connection ~ 9900 1650
Connection ~ 9900 2850
$Comp
L Connector:Conn_01x05_Male J13
U 1 1 5FBDABC6
P 7350 3000
F 0 "J13" H 7450 3300 50  0000 R CNN
F 1 "Conn_01x05_Male" H 8050 2650 50  0001 R CNN
F 2 "Connector_PinHeader_1.27mm:PinHeader_1x05_P1.27mm_Vertical" H 7350 3000 50  0001 C CNN
F 3 "~" H 7350 3000 50  0001 C CNN
	1    7350 3000
	1    0    0    1   
$EndComp
$Comp
L Connector:Conn_01x05_Male J12
U 1 1 5FBDC7EE
P 7100 3000
F 0 "J12" H 7200 3300 50  0000 R CNN
F 1 "Conn_01x05_Male" H 7550 2650 50  0001 R CNN
F 2 "Connector_PinHeader_1.27mm:PinHeader_1x05_P1.27mm_Vertical" H 7100 3000 50  0001 C CNN
F 3 "~" H 7100 3000 50  0001 C CNN
	1    7100 3000
	-1   0    0    1   
$EndComp
Wire Wire Line
	6500 2800 6900 2800
Wire Wire Line
	6900 2900 5800 2900
Connection ~ 5800 2900
Wire Wire Line
	6050 3000 6900 3000
Connection ~ 6050 3000
Wire Wire Line
	6300 3100 6900 3100
Connection ~ 6300 3100
Wire Wire Line
	7550 3250 7550 3200
Wire Notes Line
	7250 2750 7250 3400
Text Notes 6750 2650 0    50   ~ 0
board separation/Z offset
Wire Wire Line
	5650 1500 5850 1500
$Comp
L Device:C C42
U 1 1 5FD0F13D
P 5400 4950
F 0 "C42" H 5100 5000 50  0000 L CNN
F 1 "100nF" H 5050 4900 50  0000 L CNN
F 2 "Capacitor_SMD:C_0603_1608Metric" H 5438 4800 50  0001 C CNN
F 3 "~" H 5400 4950 50  0001 C CNN
	1    5400 4950
	1    0    0    -1  
$EndComp
$Comp
L power:VDD #PWR082
U 1 1 5FD0F143
P 5400 4800
F 0 "#PWR082" H 5400 4650 50  0001 C CNN
F 1 "VDD" H 5400 4950 50  0000 C CNN
F 2 "" H 5400 4800 50  0001 C CNN
F 3 "" H 5400 4800 50  0001 C CNN
	1    5400 4800
	1    0    0    -1  
$EndComp
$Comp
L power:GND #PWR083
U 1 1 5FD0F149
P 5400 5100
F 0 "#PWR083" H 5400 4850 50  0001 C CNN
F 1 "GND" H 5405 4927 50  0000 C CNN
F 2 "" H 5400 5100 50  0001 C CNN
F 3 "" H 5400 5100 50  0001 C CNN
	1    5400 5100
	1    0    0    -1  
$EndComp
Connection ~ 5400 4800
$Comp
L Device:C C41
U 1 1 5FD31505
P 5400 3850
F 0 "C41" H 5515 3896 50  0000 L CNN
F 1 "100nF" H 5515 3805 50  0000 L CNN
F 2 "Capacitor_SMD:C_0603_1608Metric" H 5438 3700 50  0001 C CNN
F 3 "~" H 5400 3850 50  0001 C CNN
	1    5400 3850
	1    0    0    -1  
$EndComp
$Comp
L power:VDD #PWR080
U 1 1 5FD3150B
P 5400 3700
F 0 "#PWR080" H 5400 3550 50  0001 C CNN
F 1 "VDD" H 5400 3850 50  0000 C CNN
F 2 "" H 5400 3700 50  0001 C CNN
F 3 "" H 5400 3700 50  0001 C CNN
	1    5400 3700
	1    0    0    -1  
$EndComp
$Comp
L power:GND #PWR081
U 1 1 5FD31511
P 5400 4000
F 0 "#PWR081" H 5400 3750 50  0001 C CNN
F 1 "GND" H 5405 3827 50  0000 C CNN
F 2 "" H 5400 4000 50  0001 C CNN
F 3 "" H 5400 4000 50  0001 C CNN
	1    5400 4000
	1    0    0    -1  
$EndComp
Connection ~ 5400 3700
Wire Wire Line
	5000 4100 5000 3700
Wire Wire Line
	5000 3700 5400 3700
Wire Wire Line
	5000 5200 5000 4800
Wire Wire Line
	5000 4800 5400 4800
Connection ~ 4600 4700
Wire Wire Line
	4500 3500 4500 3200
Wire Wire Line
	5400 3350 5400 3200
Connection ~ 5700 4500
Wire Wire Line
	5700 4500 5800 4500
Wire Wire Line
	5400 4500 5700 4500
Connection ~ 5700 5600
Wire Wire Line
	5700 5600 5800 5600
Wire Wire Line
	5400 5600 5700 5600
Wire Wire Line
	5900 1000 7100 1000
Wire Wire Line
	5450 1000 5600 1000
Connection ~ 6450 1750
Wire Wire Line
	5800 1750 6450 1750
Wire Wire Line
	5400 2000 5650 2000
$Comp
L Device:Jumper_NO_Small JP7
U 1 1 5FE5778A
P 8400 4300
F 0 "JP7" H 8550 4350 50  0000 C CNN
F 1 "Jumper_NO_Small" H 8400 4394 50  0001 C CNN
F 2 "Jumper:SolderJumper-2_P1.3mm_Open_RoundedPad1.0x1.5mm" H 8400 4300 50  0001 C CNN
F 3 "~" H 8400 4300 50  0001 C CNN
	1    8400 4300
	1    0    0    -1  
$EndComp
Wire Wire Line
	8500 4300 8650 4300
$Comp
L Device:Jumper_NO_Small JP8
U 1 1 5FE67BCD
P 8400 4900
F 0 "JP8" H 8550 4950 50  0000 C CNN
F 1 "Jumper_NO_Small" H 8400 4994 50  0001 C CNN
F 2 "Jumper:SolderJumper-2_P1.3mm_Open_RoundedPad1.0x1.5mm" H 8400 4900 50  0001 C CNN
F 3 "~" H 8400 4900 50  0001 C CNN
	1    8400 4900
	1    0    0    -1  
$EndComp
Wire Wire Line
	8500 4900 8650 4900
$Comp
L Device:Jumper_NO_Small JP9
U 1 1 5FE78441
P 8400 5500
F 0 "JP9" H 8550 5550 50  0000 C CNN
F 1 "Jumper_NO_Small" H 8400 5594 50  0001 C CNN
F 2 "Jumper:SolderJumper-2_P1.3mm_Open_RoundedPad1.0x1.5mm" H 8400 5500 50  0001 C CNN
F 3 "~" H 8400 5500 50  0001 C CNN
	1    8400 5500
	1    0    0    -1  
$EndComp
Wire Wire Line
	8500 5500 8650 5500
$Comp
L Device:Jumper_NO_Small JP10
U 1 1 5FE88F56
P 8400 6100
F 0 "JP10" H 8550 6150 50  0000 C CNN
F 1 "Jumper_NO_Small" H 8400 6194 50  0001 C CNN
F 2 "Jumper:SolderJumper-2_P1.3mm_Open_RoundedPad1.0x1.5mm" H 8400 6100 50  0001 C CNN
F 3 "~" H 8400 6100 50  0001 C CNN
	1    8400 6100
	1    0    0    -1  
$EndComp
Wire Wire Line
	8500 6100 8650 6100
$Comp
L power:GND #PWR088
U 1 1 5FE998B7
P 8300 6100
F 0 "#PWR088" H 8300 5850 50  0001 C CNN
F 1 "GND" H 8305 5927 50  0000 C CNN
F 2 "" H 8300 6100 50  0001 C CNN
F 3 "" H 8300 6100 50  0001 C CNN
	1    8300 6100
	1    0    0    -1  
$EndComp
$Comp
L power:GND #PWR087
U 1 1 5FE99C0C
P 8300 5500
F 0 "#PWR087" H 8300 5250 50  0001 C CNN
F 1 "GND" H 8305 5327 50  0000 C CNN
F 2 "" H 8300 5500 50  0001 C CNN
F 3 "" H 8300 5500 50  0001 C CNN
	1    8300 5500
	1    0    0    -1  
$EndComp
$Comp
L power:GND #PWR086
U 1 1 5FE9A130
P 8300 4900
F 0 "#PWR086" H 8300 4650 50  0001 C CNN
F 1 "GND" H 8305 4727 50  0000 C CNN
F 2 "" H 8300 4900 50  0001 C CNN
F 3 "" H 8300 4900 50  0001 C CNN
	1    8300 4900
	1    0    0    -1  
$EndComp
$Comp
L power:GND #PWR085
U 1 1 5FE9A3BF
P 8300 4300
F 0 "#PWR085" H 8300 4050 50  0001 C CNN
F 1 "GND" H 8305 4127 50  0000 C CNN
F 2 "" H 8300 4300 50  0001 C CNN
F 3 "" H 8300 4300 50  0001 C CNN
	1    8300 4300
	1    0    0    -1  
$EndComp
$Comp
L Device:Jumper_NO_Small JP6
U 1 1 5FE9C3FC
P 1450 1000
F 0 "JP6" H 1300 1050 50  0000 C CNN
F 1 "Jumper_NO_Small" H 1450 1094 50  0001 C CNN
F 2 "Jumper:SolderJumper-2_P1.3mm_Open_RoundedPad1.0x1.5mm" H 1450 1000 50  0001 C CNN
F 3 "~" H 1450 1000 50  0001 C CNN
	1    1450 1000
	-1   0    0    -1  
$EndComp
$Comp
L power:GND #PWR084
U 1 1 5FE9C402
P 1550 1000
F 0 "#PWR084" H 1550 750 50  0001 C CNN
F 1 "GND" H 1555 827 50  0000 C CNN
F 2 "" H 1550 1000 50  0001 C CNN
F 3 "" H 1550 1000 50  0001 C CNN
	1    1550 1000
	-1   0    0    -1  
$EndComp
NoConn ~ 10550 1750
NoConn ~ 10550 2950
$Comp
L Device:R R33
U 1 1 600B96EC
P 4500 6050
F 0 "R33" H 4650 6100 50  0000 C CNN
F 1 "470R" H 4650 6000 50  0000 C CNN
F 2 "Resistor_SMD:R_0603_1608Metric" V 4430 6050 50  0001 C CNN
F 3 "~" H 4500 6050 50  0001 C CNN
	1    4500 6050
	1    0    0    -1  
$EndComp
$Comp
L power:VDD #PWR0132
U 1 1 602AEB6A
P 4250 5300
F 0 "#PWR0132" H 4250 5150 50  0001 C CNN
F 1 "VDD" H 4265 5473 50  0000 C CNN
F 2 "" H 4250 5300 50  0001 C CNN
F 3 "" H 4250 5300 50  0001 C CNN
	1    4250 5300
	1    0    0    -1  
$EndComp
$Comp
L power:GND #PWR0133
U 1 1 602AF0C3
P 4250 5500
F 0 "#PWR0133" H 4250 5250 50  0001 C CNN
F 1 "GND" H 4255 5327 50  0000 C CNN
F 2 "" H 4250 5500 50  0001 C CNN
F 3 "" H 4250 5500 50  0001 C CNN
	1    4250 5500
	1    0    0    -1  
$EndComp
$Comp
L Amplifier_Operational:TL072 U14
U 2 1 6030F316
P 9400 2850
F 0 "U14" H 9400 2550 50  0000 C CNN
F 1 "TL072" H 9400 2650 50  0000 C CNN
F 2 "Package_SO:TSSOP-8_4.4x3mm_P0.65mm" H 9400 2850 50  0001 C CNN
F 3 "http://www.ti.com/lit/ds/symlink/tl071.pdf" H 9400 2850 50  0001 C CNN
	2    9400 2850
	1    0    0    1   
$EndComp
$Comp
L Device:C C44
U 1 1 6025232C
P 2150 7300
F 0 "C44" H 2200 7400 50  0000 L CNN
F 1 "10uF" H 2200 7200 50  0000 L CNN
F 2 "Capacitor_SMD:C_0805_2012Metric_Pad1.18x1.45mm_HandSolder" H 2188 7150 50  0001 C CNN
F 3 "~" H 2150 7300 50  0001 C CNN
	1    2150 7300
	1    0    0    -1  
$EndComp
Wire Wire Line
	2150 7050 2150 7150
$Comp
L power:GND #PWR090
U 1 1 6025233B
P 2150 7450
F 0 "#PWR090" H 2150 7200 50  0001 C CNN
F 1 "GND" V 2155 7322 50  0000 R CNN
F 2 "" H 2150 7450 50  0001 C CNN
F 3 "" H 2150 7450 50  0001 C CNN
	1    2150 7450
	1    0    0    -1  
$EndComp
$Comp
L power:-12V #PWR089
U 1 1 602630B6
P 2150 7050
F 0 "#PWR089" H 2150 7150 50  0001 C CNN
F 1 "-12V" H 2165 7223 50  0000 C CNN
F 2 "" H 2150 7050 50  0001 C CNN
F 3 "" H 2150 7050 50  0001 C CNN
	1    2150 7050
	-1   0    0    -1  
$EndComp
$EndSCHEMATC
