%TF.GenerationSoftware,KiCad,Pcbnew,(5.1.8)-1*%
%TF.CreationDate,2021-02-12T12:31:06+01:00*%
%TF.ProjectId,traouiero_encoder,7472616f-7569-4657-926f-5f656e636f64,rev?*%
%TF.SameCoordinates,Original*%
%TF.FileFunction,Legend,Bot*%
%TF.FilePolarity,Positive*%
%FSLAX46Y46*%
G04 Gerber Fmt 4.6, Leading zero omitted, Abs format (unit mm)*
G04 Created by KiCad (PCBNEW (5.1.8)-1) date 2021-02-12 12:31:06*
%MOMM*%
%LPD*%
G01*
G04 APERTURE LIST*
%ADD10C,0.120000*%
%ADD11C,0.150000*%
G04 APERTURE END LIST*
D10*
%TO.C,J13*%
X177210000Y-90800000D02*
X176100000Y-90800000D01*
X177210000Y-91560000D02*
X177210000Y-90800000D01*
X175536529Y-92320000D02*
X174990000Y-92320000D01*
X177210000Y-92320000D02*
X176663471Y-92320000D01*
X174990000Y-92320000D02*
X174990000Y-97335000D01*
X177210000Y-92320000D02*
X177210000Y-97335000D01*
X175792470Y-97335000D02*
X174990000Y-97335000D01*
X177210000Y-97335000D02*
X176407530Y-97335000D01*
D11*
X176909523Y-89317380D02*
X176909523Y-90031666D01*
X176957142Y-90174523D01*
X177052380Y-90269761D01*
X177195238Y-90317380D01*
X177290476Y-90317380D01*
X175909523Y-90317380D02*
X176480952Y-90317380D01*
X176195238Y-90317380D02*
X176195238Y-89317380D01*
X176290476Y-89460238D01*
X176385714Y-89555476D01*
X176480952Y-89603095D01*
X175576190Y-89317380D02*
X174957142Y-89317380D01*
X175290476Y-89698333D01*
X175147619Y-89698333D01*
X175052380Y-89745952D01*
X175004761Y-89793571D01*
X174957142Y-89888809D01*
X174957142Y-90126904D01*
X175004761Y-90222142D01*
X175052380Y-90269761D01*
X175147619Y-90317380D01*
X175433333Y-90317380D01*
X175528571Y-90269761D01*
X175576190Y-90222142D01*
%TD*%
M02*
